#
# RingParticleB.obj
#
# 282 vertices
# 334 texture coordinate pairs
# 282 vertex normals
# 300 in 1 face sets
#



# 1 material libraries
mtllib RingParticles.mtl



# 282 vertices
v 0.197736 -0.978148 -0.064248
v 0.168204 -0.978148 -0.122208
v 0.122208 -0.978148 -0.168204
v 0.064248 -0.978148 -0.197736
v 0 -0.978148 -0.207912
v -0.064248 -0.978148 -0.197736
v -0.122207 -0.978148 -0.168204
v -0.168204 -0.978148 -0.122207
v -0.197736 -0.978148 -0.064248
v -0.207912 -0.978148 0
v -0.197736 -0.978148 0.064248
v -0.168204 -0.978148 0.122207
v -0.122207 -0.978148 0.168204
v -0.064248 -0.978148 0.197736
v -0 -0.978148 0.207912
v 0.064248 -0.978148 0.197736
v 0.122207 -0.978148 0.168204
v 0.168204 -0.978148 0.122207
v 0.197736 -0.978148 0.064248
v 0.207912 -0.978148 0
v 0.38683 -0.913545 -0.125689
v 0.329057 -0.913545 -0.239074
v 0.239074 -0.913545 -0.329057
v 0.125689 -0.913545 -0.38683
v 0 -0.913545 -0.406737
v -0.125689 -0.913545 -0.38683
v -0.239074 -0.913545 -0.329057
v -0.329057 -0.913545 -0.239074
v -0.38683 -0.913545 -0.125689
v -0.406737 -0.913545 0
v -0.38683 -0.913545 0.125689
v -0.329057 -0.913545 0.239074
v -0.239074 -0.913545 0.329057
v -0.125689 -0.913545 0.38683
v -0 -0.913545 0.406737
v 0.125689 -0.913545 0.38683
v 0.239074 -0.913545 0.329057
v 0.329057 -0.913545 0.239074
v 0.38683 -0.913545 0.125689
v 0.406737 -0.913545 0
v 0.559017 -0.809017 -0.181636
v 0.475529 -0.809017 -0.345492
v 0.345492 -0.809017 -0.475529
v 0.181636 -0.809017 -0.559017
v 0 -0.809017 -0.587786
v -0.181636 -0.809017 -0.559017
v -0.345492 -0.809017 -0.475528
v -0.475528 -0.809017 -0.345492
v -0.559017 -0.809017 -0.181636
v -0.587785 -0.809017 0
v -0.559017 -0.809017 0.181636
v -0.475528 -0.809017 0.345492
v -0.345492 -0.809017 0.475528
v -0.181636 -0.809017 0.559017
v -0 -0.809017 0.587785
v 0.181636 -0.809017 0.559017
v 0.345491 -0.809017 0.475528
v 0.475528 -0.809017 0.345492
v 0.559017 -0.809017 0.181636
v 0.587785 -0.809017 0
v 0.706773 -0.669131 -0.229645
v 0.601217 -0.669131 -0.43681
v 0.43681 -0.669131 -0.601217
v 0.229645 -0.669131 -0.706773
v 0 -0.669131 -0.743145
v -0.229645 -0.669131 -0.706773
v -0.43681 -0.669131 -0.601217
v -0.601217 -0.669131 -0.43681
v -0.706773 -0.669131 -0.229644
v -0.743145 -0.669131 0
v -0.706773 -0.669131 0.229644
v -0.601217 -0.669131 0.43681
v -0.43681 -0.669131 0.601217
v -0.229644 -0.669131 0.706773
v -0 -0.669131 0.743145
v 0.229644 -0.669131 0.706773
v 0.43681 -0.669131 0.601217
v 0.601217 -0.669131 0.43681
v 0.706773 -0.669131 0.229644
v 0.743145 -0.669131 0
v 0.82364 -0.5 -0.267617
v 0.70063 -0.5 -0.509037
v 0.509037 -0.5 -0.70063
v 0.267617 -0.5 -0.82364
v 0 -0.5 -0.866026
v -0.267617 -0.5 -0.82364
v -0.509037 -0.5 -0.70063
v -0.70063 -0.5 -0.509037
v -0.823639 -0.5 -0.267617
v -0.866026 -0.5 0
v -0.823639 -0.5 0.267617
v -0.700629 -0.5 0.509037
v -0.509037 -0.5 0.700629
v -0.267617 -0.5 0.823639
v -0 -0.5 0.866026
v 0.267617 -0.5 0.823639
v 0.509037 -0.5 0.700629
v 0.700629 -0.5 0.509037
v 0.823639 -0.5 0.267617
v 0.866025 -0.5 0
v 0.904509 -0.309017 -0.293893
v 0.769421 -0.309017 -0.559017
v 0.559017 -0.309017 -0.769421
v 0.293893 -0.309017 -0.904509
v 0 -0.309017 -0.951057
v -0.293893 -0.309017 -0.904509
v -0.559017 -0.309017 -0.769421
v -0.769421 -0.309017 -0.559017
v -0.904509 -0.309017 -0.293893
v -0.951057 -0.309017 0
v -0.904509 -0.309017 0.293893
v -0.769421 -0.309017 0.559017
v -0.559017 -0.309017 0.769421
v -0.293893 -0.309017 0.904509
v -0 -0.309017 0.951057
v 0.293893 -0.309017 0.904509
v 0.559017 -0.309017 0.769421
v 0.769421 -0.309017 0.559017
v 0.904509 -0.309017 0.293893
v 0.951057 -0.309017 0
v 0.945847 -0.104528 -0.307324
v 0.804586 -0.104528 -0.584566
v 0.584566 -0.104528 -0.804586
v 0.307324 -0.104528 -0.945847
v 0 -0.104528 -0.994522
v -0.307324 -0.104528 -0.945847
v -0.584566 -0.104528 -0.804585
v -0.804585 -0.104528 -0.584565
v -0.945847 -0.104528 -0.307324
v -0.994522 -0.104528 0
v -0.945847 -0.104528 0.307324
v -0.804585 -0.104528 0.584565
v -0.584565 -0.104528 0.804585
v -0.307324 -0.104528 0.945847
v -0 -0.104528 0.994522
v 0.307324 -0.104528 0.945847
v 0.584565 -0.104528 0.804585
v 0.804585 -0.104528 0.584565
v 0.945847 -0.104528 0.307324
v 0.994522 -0.104528 0
v 0.945847 0.104528 -0.307324
v 0.804586 0.104528 -0.584566
v 0.584566 0.104528 -0.804586
v 0.307324 0.104528 -0.945847
v 0 0.104528 -0.994522
v -0.307324 0.104528 -0.945847
v -0.584566 0.104528 -0.804585
v -0.804585 0.104528 -0.584565
v -0.945847 0.104528 -0.307324
v -0.994522 0.104528 0
v -0.945847 0.104528 0.307324
v -0.804585 0.104528 0.584565
v -0.584565 0.104528 0.804585
v -0.307324 0.104528 0.945847
v -0 0.104528 0.994522
v 0.307324 0.104528 0.945847
v 0.584565 0.104528 0.804585
v 0.804585 0.104528 0.584565
v 0.945847 0.104528 0.307324
v 0.994522 0.104528 0
v 0.904509 0.309017 -0.293893
v 0.769421 0.309017 -0.559017
v 0.559017 0.309017 -0.769421
v 0.293893 0.309017 -0.904509
v 0 0.309017 -0.951057
v -0.293893 0.309017 -0.904509
v -0.559017 0.309017 -0.769421
v -0.769421 0.309017 -0.559017
v -0.904509 0.309017 -0.293893
v -0.951057 0.309017 0
v -0.904509 0.309017 0.293893
v -0.769421 0.309017 0.559017
v -0.559017 0.309017 0.769421
v -0.293893 0.309017 0.904509
v -0 0.309017 0.951057
v 0.293893 0.309017 0.904509
v 0.559017 0.309017 0.769421
v 0.769421 0.309017 0.559017
v 0.904509 0.309017 0.293893
v 0.951057 0.309017 0
v 0.82364 0.5 -0.267617
v 0.70063 0.5 -0.509037
v 0.509037 0.5 -0.70063
v 0.267617 0.5 -0.82364
v 0 0.5 -0.866026
v -0.267617 0.5 -0.82364
v -0.509037 0.5 -0.70063
v -0.70063 0.5 -0.509037
v -0.823639 0.5 -0.267617
v -0.866026 0.5 0
v -0.823639 0.5 0.267617
v -0.700629 0.5 0.509037
v -0.509037 0.5 0.700629
v -0.267617 0.5 0.823639
v -0 0.5 0.866026
v 0.267617 0.5 0.823639
v 0.509037 0.5 0.700629
v 0.700629 0.5 0.509037
v 0.823639 0.5 0.267617
v 0.866025 0.5 0
v 0.706773 0.669131 -0.229645
v 0.601217 0.669131 -0.43681
v 0.43681 0.669131 -0.601217
v 0.229645 0.669131 -0.706773
v 0 0.669131 -0.743145
v -0.229645 0.669131 -0.706773
v -0.43681 0.669131 -0.601217
v -0.601217 0.669131 -0.43681
v -0.706773 0.669131 -0.229644
v -0.743145 0.669131 0
v -0.706773 0.669131 0.229644
v -0.601217 0.669131 0.43681
v -0.43681 0.669131 0.601217
v -0.229644 0.669131 0.706773
v -0 0.669131 0.743145
v 0.229644 0.669131 0.706773
v 0.43681 0.669131 0.601217
v 0.601217 0.669131 0.43681
v 0.706773 0.669131 0.229644
v 0.743145 0.669131 0
v 0.559017 0.809017 -0.181636
v 0.475529 0.809017 -0.345492
v 0.345492 0.809017 -0.475529
v 0.181636 0.809017 -0.559017
v 0 0.809017 -0.587786
v -0.181636 0.809017 -0.559017
v -0.345492 0.809017 -0.475528
v -0.475528 0.809017 -0.345492
v -0.559017 0.809017 -0.181636
v -0.587785 0.809017 0
v -0.559017 0.809017 0.181636
v -0.475528 0.809017 0.345492
v -0.345492 0.809017 0.475528
v -0.181636 0.809017 0.559017
v -0 0.809017 0.587785
v 0.181636 0.809017 0.559017
v 0.345491 0.809017 0.475528
v 0.475528 0.809017 0.345492
v 0.559017 0.809017 0.181636
v 0.587785 0.809017 0
v 0.38683 0.913545 -0.125689
v 0.329057 0.913545 -0.239074
v 0.239074 0.913545 -0.329057
v 0.125689 0.913545 -0.38683
v 0 0.913545 -0.406737
v -0.125689 0.913545 -0.38683
v -0.239074 0.913545 -0.329057
v -0.329057 0.913545 -0.239074
v -0.38683 0.913545 -0.125689
v -0.406737 0.913545 0
v -0.38683 0.913545 0.125689
v -0.329057 0.913545 0.239074
v -0.239074 0.913545 0.329057
v -0.125689 0.913545 0.38683
v -0 0.913545 0.406737
v 0.125689 0.913545 0.38683
v 0.239074 0.913545 0.329057
v 0.329057 0.913545 0.239074
v 0.38683 0.913545 0.125689
v 0.406737 0.913545 0
v 0.197736 0.978148 -0.064248
v 0.168204 0.978148 -0.122208
v 0.122208 0.978148 -0.168204
v 0.064248 0.978148 -0.197736
v 0 0.978148 -0.207912
v -0.064248 0.978148 -0.197736
v -0.122207 0.978148 -0.168204
v -0.168204 0.978148 -0.122207
v -0.197736 0.978148 -0.064248
v -0.207912 0.978148 0
v -0.197736 0.978148 0.064248
v -0.168204 0.978148 0.122207
v -0.122207 0.978148 0.168204
v -0.064248 0.978148 0.197736
v -0 0.978148 0.207912
v 0.064248 0.978148 0.197736
v 0.122207 0.978148 0.168204
v 0.168204 0.978148 0.122207
v 0.197736 0.978148 0.064248
v 0.207912 0.978148 0
v 0 -1 0
v 0 1 0



# 334 texture coordinate pairs
vt 0 0.066667
vt 0.05 0.066667
vt 0.1 0.066667
vt 0.15 0.066667
vt 0.2 0.066667
vt 0.25 0.066667
vt 0.3 0.066667
vt 0.35 0.066667
vt 0.4 0.066667
vt 0.45 0.066667
vt 0.5 0.066667
vt 0.55 0.066667
vt 0.6 0.066667
vt 0.65 0.066667
vt 0.7 0.066667
vt 0.75 0.066667
vt 0.8 0.066667
vt 0.85 0.066667
vt 0.9 0.066667
vt 0.95 0.066667
vt 1 0.066667
vt 0 0.133333
vt 0.05 0.133333
vt 0.1 0.133333
vt 0.15 0.133333
vt 0.2 0.133333
vt 0.25 0.133333
vt 0.3 0.133333
vt 0.35 0.133333
vt 0.4 0.133333
vt 0.45 0.133333
vt 0.5 0.133333
vt 0.55 0.133333
vt 0.6 0.133333
vt 0.65 0.133333
vt 0.7 0.133333
vt 0.75 0.133333
vt 0.8 0.133333
vt 0.85 0.133333
vt 0.9 0.133333
vt 0.95 0.133333
vt 1 0.133333
vt 0 0.2
vt 0.05 0.2
vt 0.1 0.2
vt 0.15 0.2
vt 0.2 0.2
vt 0.25 0.2
vt 0.3 0.2
vt 0.35 0.2
vt 0.4 0.2
vt 0.45 0.2
vt 0.5 0.2
vt 0.55 0.2
vt 0.6 0.2
vt 0.65 0.2
vt 0.7 0.2
vt 0.75 0.2
vt 0.8 0.2
vt 0.85 0.2
vt 0.9 0.2
vt 0.95 0.2
vt 1 0.2
vt 0 0.266667
vt 0.05 0.266667
vt 0.1 0.266667
vt 0.15 0.266667
vt 0.2 0.266667
vt 0.25 0.266667
vt 0.3 0.266667
vt 0.35 0.266667
vt 0.4 0.266667
vt 0.45 0.266667
vt 0.5 0.266667
vt 0.55 0.266667
vt 0.6 0.266667
vt 0.65 0.266667
vt 0.7 0.266667
vt 0.75 0.266667
vt 0.8 0.266667
vt 0.85 0.266667
vt 0.9 0.266667
vt 0.95 0.266667
vt 1 0.266667
vt 0 0.333333
vt 0.05 0.333333
vt 0.1 0.333333
vt 0.15 0.333333
vt 0.2 0.333333
vt 0.25 0.333333
vt 0.3 0.333333
vt 0.35 0.333333
vt 0.4 0.333333
vt 0.45 0.333333
vt 0.5 0.333333
vt 0.55 0.333333
vt 0.6 0.333333
vt 0.65 0.333333
vt 0.7 0.333333
vt 0.75 0.333333
vt 0.8 0.333333
vt 0.85 0.333333
vt 0.9 0.333333
vt 0.95 0.333333
vt 1 0.333333
vt 0 0.4
vt 0.05 0.4
vt 0.1 0.4
vt 0.15 0.4
vt 0.2 0.4
vt 0.25 0.4
vt 0.3 0.4
vt 0.35 0.4
vt 0.4 0.4
vt 0.45 0.4
vt 0.5 0.4
vt 0.55 0.4
vt 0.6 0.4
vt 0.65 0.4
vt 0.7 0.4
vt 0.75 0.4
vt 0.8 0.4
vt 0.85 0.4
vt 0.9 0.4
vt 0.95 0.4
vt 1 0.4
vt 0 0.466667
vt 0.05 0.466667
vt 0.1 0.466667
vt 0.15 0.466667
vt 0.2 0.466667
vt 0.25 0.466667
vt 0.3 0.466667
vt 0.35 0.466667
vt 0.4 0.466667
vt 0.45 0.466667
vt 0.5 0.466667
vt 0.55 0.466667
vt 0.6 0.466667
vt 0.65 0.466667
vt 0.7 0.466667
vt 0.75 0.466667
vt 0.8 0.466667
vt 0.85 0.466667
vt 0.9 0.466667
vt 0.95 0.466667
vt 1 0.466667
vt 0 0.533333
vt 0.05 0.533333
vt 0.1 0.533333
vt 0.15 0.533333
vt 0.2 0.533333
vt 0.25 0.533333
vt 0.3 0.533333
vt 0.35 0.533333
vt 0.4 0.533333
vt 0.45 0.533333
vt 0.5 0.533333
vt 0.55 0.533333
vt 0.6 0.533333
vt 0.65 0.533333
vt 0.7 0.533333
vt 0.75 0.533333
vt 0.8 0.533333
vt 0.85 0.533333
vt 0.9 0.533333
vt 0.95 0.533333
vt 1 0.533333
vt 0 0.6
vt 0.05 0.6
vt 0.1 0.6
vt 0.15 0.6
vt 0.2 0.6
vt 0.25 0.6
vt 0.3 0.6
vt 0.35 0.6
vt 0.4 0.6
vt 0.45 0.6
vt 0.5 0.6
vt 0.55 0.6
vt 0.6 0.6
vt 0.65 0.6
vt 0.7 0.6
vt 0.75 0.6
vt 0.8 0.6
vt 0.85 0.6
vt 0.9 0.6
vt 0.95 0.6
vt 1 0.6
vt 0 0.666667
vt 0.05 0.666667
vt 0.1 0.666667
vt 0.15 0.666667
vt 0.2 0.666667
vt 0.25 0.666667
vt 0.3 0.666667
vt 0.35 0.666667
vt 0.4 0.666667
vt 0.45 0.666667
vt 0.5 0.666667
vt 0.55 0.666667
vt 0.6 0.666667
vt 0.65 0.666667
vt 0.7 0.666667
vt 0.75 0.666667
vt 0.8 0.666667
vt 0.85 0.666667
vt 0.9 0.666667
vt 0.95 0.666667
vt 1 0.666667
vt 0 0.733333
vt 0.05 0.733333
vt 0.1 0.733333
vt 0.15 0.733333
vt 0.2 0.733333
vt 0.25 0.733333
vt 0.3 0.733333
vt 0.35 0.733333
vt 0.4 0.733333
vt 0.45 0.733333
vt 0.5 0.733333
vt 0.55 0.733333
vt 0.6 0.733333
vt 0.65 0.733333
vt 0.7 0.733333
vt 0.75 0.733333
vt 0.8 0.733333
vt 0.85 0.733333
vt 0.9 0.733333
vt 0.95 0.733333
vt 1 0.733333
vt 0 0.8
vt 0.05 0.8
vt 0.1 0.8
vt 0.15 0.8
vt 0.2 0.8
vt 0.25 0.8
vt 0.3 0.8
vt 0.35 0.8
vt 0.4 0.8
vt 0.45 0.8
vt 0.5 0.8
vt 0.55 0.8
vt 0.6 0.8
vt 0.65 0.8
vt 0.7 0.8
vt 0.75 0.8
vt 0.8 0.8
vt 0.85 0.8
vt 0.9 0.8
vt 0.95 0.8
vt 1 0.8
vt 0 0.866667
vt 0.05 0.866667
vt 0.1 0.866667
vt 0.15 0.866667
vt 0.2 0.866667
vt 0.25 0.866667
vt 0.3 0.866667
vt 0.35 0.866667
vt 0.4 0.866667
vt 0.45 0.866667
vt 0.5 0.866667
vt 0.55 0.866667
vt 0.6 0.866667
vt 0.65 0.866667
vt 0.7 0.866667
vt 0.75 0.866667
vt 0.8 0.866667
vt 0.85 0.866667
vt 0.9 0.866667
vt 0.95 0.866667
vt 1 0.866667
vt 0 0.933333
vt 0.05 0.933333
vt 0.1 0.933333
vt 0.15 0.933333
vt 0.2 0.933333
vt 0.25 0.933333
vt 0.3 0.933333
vt 0.35 0.933333
vt 0.4 0.933333
vt 0.45 0.933333
vt 0.5 0.933333
vt 0.55 0.933333
vt 0.6 0.933333
vt 0.65 0.933333
vt 0.7 0.933333
vt 0.75 0.933333
vt 0.8 0.933333
vt 0.85 0.933333
vt 0.9 0.933333
vt 0.95 0.933333
vt 1 0.933333
vt 0.025 0
vt 0.075 0
vt 0.125 0
vt 0.175 0
vt 0.225 0
vt 0.275 0
vt 0.325 0
vt 0.375 0
vt 0.425 0
vt 0.475 0
vt 0.525 0
vt 0.575 0
vt 0.625 0
vt 0.675 0
vt 0.725 0
vt 0.775 0
vt 0.825 0
vt 0.875 0
vt 0.925 0
vt 0.975 0
vt 0.025 1
vt 0.075 1
vt 0.125 1
vt 0.175 1
vt 0.225 1
vt 0.275 1
vt 0.325 1
vt 0.375 1
vt 0.425 1
vt 0.475 1
vt 0.525 1
vt 0.575 1
vt 0.625 1
vt 0.675 1
vt 0.725 1
vt 0.775 1
vt 0.825 1
vt 0.875 1
vt 0.925 1
vt 0.975 1



# 282 vertex normals
vn 0.197684 -0.978159 -0.064232
vn 0.16816 -0.978159 -0.122175
vn 0.328982 -0.913587 -0.239019
vn 0.386741 -0.913587 -0.125659
vn 0.122175 -0.978159 -0.16816
vn 0.239019 -0.913587 -0.328982
vn 0.064231 -0.978159 -0.197684
vn 0.12566 -0.913587 -0.386741
vn -0 -0.978159 -0.207857
vn -0 -0.913587 -0.406644
vn -0.064231 -0.978159 -0.197684
vn -0.12566 -0.913587 -0.386741
vn -0.122175 -0.978159 -0.168159
vn -0.239019 -0.913587 -0.328982
vn -0.16816 -0.978159 -0.122175
vn -0.328982 -0.913587 -0.239019
vn -0.197684 -0.978159 -0.064231
vn -0.386741 -0.913587 -0.12566
vn -0.207857 -0.978159 -0
vn -0.406644 -0.913587 -0
vn -0.197684 -0.978159 0.064232
vn -0.386741 -0.913587 0.12566
vn -0.16816 -0.978159 0.122175
vn -0.328982 -0.913587 0.239019
vn -0.122175 -0.978159 0.16816
vn -0.239019 -0.913587 0.328982
vn -0.064231 -0.978159 0.197684
vn -0.12566 -0.913587 0.386741
vn 0 -0.978159 0.207858
vn 0 -0.913587 0.406644
vn 0.064231 -0.978159 0.197684
vn 0.12566 -0.913587 0.386741
vn 0.122175 -0.978159 0.16816
vn 0.239019 -0.913587 0.328982
vn 0.16816 -0.978159 0.122176
vn 0.328982 -0.913587 0.239019
vn 0.197684 -0.978159 0.064232
vn 0.386742 -0.913587 0.12566
vn 0.207857 -0.978159 0
vn 0.406644 -0.913587 1e-006
vn 0.475443 -0.809093 -0.34543
vn 0.558917 -0.809093 -0.181603
vn 0.34543 -0.809093 -0.475443
vn 0.181603 -0.809093 -0.558917
vn -0 -0.809093 -0.587681
vn -0.181603 -0.809093 -0.558917
vn -0.34543 -0.809093 -0.475443
vn -0.475444 -0.809093 -0.34543
vn -0.558917 -0.809093 -0.181603
vn -0.587681 -0.809093 -0
vn -0.558917 -0.809093 0.181603
vn -0.475444 -0.809093 0.34543
vn -0.34543 -0.809093 0.475444
vn -0.181603 -0.809093 0.558917
vn 0 -0.809093 0.587681
vn 0.181603 -0.809093 0.558918
vn 0.34543 -0.809093 0.475444
vn 0.475444 -0.809093 0.34543
vn 0.558918 -0.809093 0.181603
vn 0.587681 -0.809093 1e-006
vn 0.601144 -0.669231 -0.436757
vn 0.706687 -0.669231 -0.229616
vn 0.436757 -0.669231 -0.601144
vn 0.229616 -0.669231 -0.706687
vn -0 -0.669231 -0.743055
vn -0.229617 -0.669231 -0.706687
vn -0.436757 -0.669231 -0.601144
vn -0.601144 -0.669231 -0.436756
vn -0.706687 -0.669231 -0.229616
vn -0.743055 -0.669231 -0
vn -0.706687 -0.669231 0.229617
vn -0.601144 -0.669231 0.436757
vn -0.436757 -0.669231 0.601144
vn -0.229617 -0.669231 0.706687
vn 0 -0.669231 0.743055
vn 0.229617 -0.669231 0.706687
vn 0.436757 -0.669231 0.601144
vn 0.601144 -0.669231 0.436757
vn 0.706687 -0.669231 0.229617
vn 0.743055 -0.669231 1e-006
vn 0.700582 -0.500101 -0.509003
vn 0.823584 -0.500101 -0.267598
vn 0.509003 -0.500101 -0.700582
vn 0.267598 -0.500101 -0.823584
vn -0 -0.500101 -0.865967
vn -0.267599 -0.500101 -0.823584
vn -0.509003 -0.500101 -0.700582
vn -0.700582 -0.500101 -0.509002
vn -0.823584 -0.500101 -0.267598
vn -0.865967 -0.500101 -0
vn -0.823584 -0.500101 0.267599
vn -0.700582 -0.500101 0.509003
vn -0.509003 -0.500101 0.700582
vn -0.267599 -0.500101 0.823584
vn 0 -0.500101 0.865967
vn 0.267599 -0.500101 0.823584
vn 0.509003 -0.500101 0.700582
vn 0.700582 -0.500101 0.509003
vn 0.823584 -0.500101 0.267599
vn 0.865967 -0.500101 1e-006
vn 0.769401 -0.309092 -0.559003
vn 0.904486 -0.309092 -0.293884
vn 0.559003 -0.309092 -0.769401
vn 0.293885 -0.309092 -0.904485
vn -0 -0.309092 -0.951032
vn -0.293885 -0.309092 -0.904485
vn -0.559003 -0.309092 -0.769401
vn -0.769401 -0.309092 -0.559003
vn -0.904485 -0.309092 -0.293885
vn -0.951032 -0.309092 -0
vn -0.904485 -0.309092 0.293885
vn -0.769401 -0.309092 0.559003
vn -0.559003 -0.309092 0.769401
vn -0.293885 -0.309092 0.904485
vn 0 -0.309092 0.951032
vn 0.293885 -0.309092 0.904485
vn 0.559003 -0.309092 0.769401
vn 0.769401 -0.309092 0.559003
vn 0.904485 -0.309092 0.293885
vn 0.951032 -0.309092 1e-006
vn 0.804583 -0.104556 -0.584564
vn 0.945844 -0.104556 -0.307322
vn 0.584563 -0.104556 -0.804583
vn 0.307323 -0.104556 -0.945844
vn -0 -0.104556 -0.994519
vn -0.307323 -0.104556 -0.945844
vn -0.584564 -0.104556 -0.804583
vn -0.804583 -0.104556 -0.584563
vn -0.945844 -0.104556 -0.307323
vn -0.994519 -0.104556 -0
vn -0.945844 -0.104556 0.307323
vn -0.804583 -0.104556 0.584564
vn -0.584563 -0.104556 0.804583
vn -0.307323 -0.104556 0.945844
vn 0 -0.104556 0.994519
vn 0.307323 -0.104556 0.945844
vn 0.584563 -0.104556 0.804583
vn 0.804583 -0.104556 0.584564
vn 0.945844 -0.104556 0.307323
vn 0.994519 -0.104556 1e-006
vn 0.804583 0.104556 -0.584564
vn 0.945844 0.104556 -0.307322
vn 0.584563 0.104556 -0.804583
vn 0.307323 0.104556 -0.945844
vn -0 0.104556 -0.994519
vn -0.307323 0.104556 -0.945844
vn -0.584564 0.104556 -0.804583
vn -0.804583 0.104556 -0.584563
vn -0.945844 0.104556 -0.307323
vn -0.994519 0.104556 -0
vn -0.945844 0.104556 0.307323
vn -0.804583 0.104556 0.584564
vn -0.584563 0.104556 0.804583
vn -0.307323 0.104556 0.945844
vn 0 0.104556 0.994519
vn 0.307323 0.104556 0.945844
vn 0.584564 0.104556 0.804583
vn 0.804583 0.104556 0.584564
vn 0.945844 0.104556 0.307323
vn 0.994519 0.104556 1e-006
vn 0.769401 0.309092 -0.559003
vn 0.904486 0.309092 -0.293884
vn 0.559003 0.309092 -0.769401
vn 0.293885 0.309092 -0.904485
vn -0 0.309092 -0.951032
vn -0.293885 0.309092 -0.904485
vn -0.559003 0.309092 -0.769401
vn -0.769401 0.309092 -0.559003
vn -0.904485 0.309092 -0.293885
vn -0.951032 0.309092 0
vn -0.904485 0.309092 0.293885
vn -0.769401 0.309092 0.559003
vn -0.559003 0.309092 0.769401
vn -0.293885 0.309092 0.904485
vn 0 0.309092 0.951032
vn 0.293885 0.309092 0.904485
vn 0.559003 0.309092 0.769401
vn 0.769401 0.309092 0.559003
vn 0.904485 0.309092 0.293885
vn 0.951032 0.309092 1e-006
vn 0.700582 0.500101 -0.509003
vn 0.823584 0.500101 -0.267598
vn 0.509003 0.500101 -0.700582
vn 0.267598 0.500101 -0.823584
vn 0 0.500101 -0.865967
vn -0.267599 0.500101 -0.823584
vn -0.509003 0.500101 -0.700582
vn -0.700582 0.500101 -0.509003
vn -0.823584 0.500101 -0.267598
vn -0.865967 0.500101 0
vn -0.823584 0.500101 0.267599
vn -0.700582 0.500101 0.509003
vn -0.509003 0.500101 0.700582
vn -0.267599 0.500101 0.823584
vn 0 0.500101 0.865967
vn 0.267599 0.500101 0.823584
vn 0.509003 0.500101 0.700582
vn 0.700582 0.500101 0.509003
vn 0.823584 0.500101 0.267599
vn 0.865967 0.500101 1e-006
vn 0.601144 0.669231 -0.436757
vn 0.706687 0.669231 -0.229616
vn 0.436757 0.669231 -0.601144
vn 0.229616 0.669231 -0.706687
vn -0 0.669231 -0.743055
vn -0.229617 0.669231 -0.706687
vn -0.436757 0.669231 -0.601144
vn -0.601144 0.669231 -0.436757
vn -0.706687 0.669231 -0.229616
vn -0.743055 0.669231 0
vn -0.706687 0.669231 0.229617
vn -0.601144 0.669231 0.436757
vn -0.436757 0.669231 0.601144
vn -0.229617 0.669231 0.706687
vn 0 0.669231 0.743055
vn 0.229617 0.669231 0.706687
vn 0.436757 0.669231 0.601144
vn 0.601144 0.669231 0.436757
vn 0.706687 0.669231 0.229617
vn 0.743055 0.669231 1e-006
vn 0.475443 0.809093 -0.34543
vn 0.558918 0.809093 -0.181603
vn 0.34543 0.809093 -0.475443
vn 0.181603 0.809093 -0.558917
vn -0 0.809093 -0.587681
vn -0.181603 0.809093 -0.558917
vn -0.34543 0.809093 -0.475443
vn -0.475444 0.809093 -0.34543
vn -0.558917 0.809093 -0.181603
vn -0.587681 0.809093 -0
vn -0.558917 0.809093 0.181603
vn -0.475444 0.809093 0.34543
vn -0.34543 0.809093 0.475444
vn -0.181603 0.809093 0.558918
vn 0 0.809093 0.587681
vn 0.181603 0.809093 0.558918
vn 0.34543 0.809093 0.475444
vn 0.475444 0.809093 0.34543
vn 0.558918 0.809093 0.181603
vn 0.587681 0.809093 1e-006
vn 0.328982 0.913587 -0.239019
vn 0.386741 0.913587 -0.125659
vn 0.239019 0.913587 -0.328982
vn 0.12566 0.913587 -0.386741
vn -0 0.913587 -0.406644
vn -0.12566 0.913587 -0.386741
vn -0.239019 0.913587 -0.328982
vn -0.328982 0.913587 -0.239019
vn -0.386741 0.913587 -0.12566
vn -0.406644 0.913587 -0
vn -0.386741 0.913587 0.12566
vn -0.328982 0.913587 0.239019
vn -0.239019 0.913587 0.328982
vn -0.12566 0.913587 0.386742
vn 0 0.913587 0.406644
vn 0.12566 0.913587 0.386741
vn 0.239019 0.913587 0.328982
vn 0.328982 0.913587 0.239019
vn 0.386741 0.913587 0.12566
vn 0.406644 0.913587 1e-006
vn 0.16816 0.978159 -0.122176
vn 0.197684 0.978159 -0.064232
vn 0.122175 0.978159 -0.16816
vn 0.064231 0.978159 -0.197684
vn -0 0.978159 -0.207857
vn -0.064231 0.978159 -0.197684
vn -0.122175 0.978159 -0.16816
vn -0.16816 0.978159 -0.122175
vn -0.197684 0.978159 -0.064231
vn -0.207857 0.978159 0
vn -0.197684 0.978159 0.064232
vn -0.16816 0.978159 0.122175
vn -0.122175 0.978159 0.16816
vn -0.064231 0.978159 0.197684
vn 0 0.978159 0.207858
vn 0.064231 0.978159 0.197684
vn 0.122175 0.978159 0.16816
vn 0.16816 0.978159 0.122175
vn 0.197684 0.978159 0.064232
vn 0.207857 0.978159 0
vn 0 -1 0
vn -0 1 -0



# 1 face sets

# 300 faces
usemtl ring_particleK
f 1/1/1 2/2/2 22/23/3 21/22/4
f 2/2/2 3/3/5 23/24/6 22/23/3
f 3/3/5 4/4/7 24/25/8 23/24/6
f 4/4/7 5/5/9 25/26/10 24/25/8
f 5/5/9 6/6/11 26/27/12 25/26/10
f 6/6/11 7/7/13 27/28/14 26/27/12
f 7/7/13 8/8/15 28/29/16 27/28/14
f 8/8/15 9/9/17 29/30/18 28/29/16
f 9/9/17 10/10/19 30/31/20 29/30/18
f 10/10/19 11/11/21 31/32/22 30/31/20
f 11/11/21 12/12/23 32/33/24 31/32/22
f 12/12/23 13/13/25 33/34/26 32/33/24
f 13/13/25 14/14/27 34/35/28 33/34/26
f 14/14/27 15/15/29 35/36/30 34/35/28
f 15/15/29 16/16/31 36/37/32 35/36/30
f 16/16/31 17/17/33 37/38/34 36/37/32
f 17/17/33 18/18/35 38/39/36 37/38/34
f 18/18/35 19/19/37 39/40/38 38/39/36
f 19/19/37 20/20/39 40/41/40 39/40/38
f 20/20/39 1/21/1 21/42/4 40/41/40
f 21/22/4 22/23/3 42/44/41 41/43/42
f 22/23/3 23/24/6 43/45/43 42/44/41
f 23/24/6 24/25/8 44/46/44 43/45/43
f 24/25/8 25/26/10 45/47/45 44/46/44
f 25/26/10 26/27/12 46/48/46 45/47/45
f 26/27/12 27/28/14 47/49/47 46/48/46
f 27/28/14 28/29/16 48/50/48 47/49/47
f 28/29/16 29/30/18 49/51/49 48/50/48
f 29/30/18 30/31/20 50/52/50 49/51/49
f 30/31/20 31/32/22 51/53/51 50/52/50
f 31/32/22 32/33/24 52/54/52 51/53/51
f 32/33/24 33/34/26 53/55/53 52/54/52
f 33/34/26 34/35/28 54/56/54 53/55/53
f 34/35/28 35/36/30 55/57/55 54/56/54
f 35/36/30 36/37/32 56/58/56 55/57/55
f 36/37/32 37/38/34 57/59/57 56/58/56
f 37/38/34 38/39/36 58/60/58 57/59/57
f 38/39/36 39/40/38 59/61/59 58/60/58
f 39/40/38 40/41/40 60/62/60 59/61/59
f 40/41/40 21/42/4 41/63/42 60/62/60
f 41/43/42 42/44/41 62/65/61 61/64/62
f 42/44/41 43/45/43 63/66/63 62/65/61
f 43/45/43 44/46/44 64/67/64 63/66/63
f 44/46/44 45/47/45 65/68/65 64/67/64
f 45/47/45 46/48/46 66/69/66 65/68/65
f 46/48/46 47/49/47 67/70/67 66/69/66
f 47/49/47 48/50/48 68/71/68 67/70/67
f 48/50/48 49/51/49 69/72/69 68/71/68
f 49/51/49 50/52/50 70/73/70 69/72/69
f 50/52/50 51/53/51 71/74/71 70/73/70
f 51/53/51 52/54/52 72/75/72 71/74/71
f 52/54/52 53/55/53 73/76/73 72/75/72
f 53/55/53 54/56/54 74/77/74 73/76/73
f 54/56/54 55/57/55 75/78/75 74/77/74
f 55/57/55 56/58/56 76/79/76 75/78/75
f 56/58/56 57/59/57 77/80/77 76/79/76
f 57/59/57 58/60/58 78/81/78 77/80/77
f 58/60/58 59/61/59 79/82/79 78/81/78
f 59/61/59 60/62/60 80/83/80 79/82/79
f 60/62/60 41/63/42 61/84/62 80/83/80
f 61/64/62 62/65/61 82/86/81 81/85/82
f 62/65/61 63/66/63 83/87/83 82/86/81
f 63/66/63 64/67/64 84/88/84 83/87/83
f 64/67/64 65/68/65 85/89/85 84/88/84
f 65/68/65 66/69/66 86/90/86 85/89/85
f 66/69/66 67/70/67 87/91/87 86/90/86
f 67/70/67 68/71/68 88/92/88 87/91/87
f 68/71/68 69/72/69 89/93/89 88/92/88
f 69/72/69 70/73/70 90/94/90 89/93/89
f 70/73/70 71/74/71 91/95/91 90/94/90
f 71/74/71 72/75/72 92/96/92 91/95/91
f 72/75/72 73/76/73 93/97/93 92/96/92
f 73/76/73 74/77/74 94/98/94 93/97/93
f 74/77/74 75/78/75 95/99/95 94/98/94
f 75/78/75 76/79/76 96/100/96 95/99/95
f 76/79/76 77/80/77 97/101/97 96/100/96
f 77/80/77 78/81/78 98/102/98 97/101/97
f 78/81/78 79/82/79 99/103/99 98/102/98
f 79/82/79 80/83/80 100/104/100 99/103/99
f 80/83/80 61/84/62 81/105/82 100/104/100
f 81/85/82 82/86/81 102/107/101 101/106/102
f 82/86/81 83/87/83 103/108/103 102/107/101
f 83/87/83 84/88/84 104/109/104 103/108/103
f 84/88/84 85/89/85 105/110/105 104/109/104
f 85/89/85 86/90/86 106/111/106 105/110/105
f 86/90/86 87/91/87 107/112/107 106/111/106
f 87/91/87 88/92/88 108/113/108 107/112/107
f 88/92/88 89/93/89 109/114/109 108/113/108
f 89/93/89 90/94/90 110/115/110 109/114/109
f 90/94/90 91/95/91 111/116/111 110/115/110
f 91/95/91 92/96/92 112/117/112 111/116/111
f 92/96/92 93/97/93 113/118/113 112/117/112
f 93/97/93 94/98/94 114/119/114 113/118/113
f 94/98/94 95/99/95 115/120/115 114/119/114
f 95/99/95 96/100/96 116/121/116 115/120/115
f 96/100/96 97/101/97 117/122/117 116/121/116
f 97/101/97 98/102/98 118/123/118 117/122/117
f 98/102/98 99/103/99 119/124/119 118/123/118
f 99/103/99 100/104/100 120/125/120 119/124/119
f 100/104/100 81/105/82 101/126/102 120/125/120
f 101/106/102 102/107/101 122/128/121 121/127/122
f 102/107/101 103/108/103 123/129/123 122/128/121
f 103/108/103 104/109/104 124/130/124 123/129/123
f 104/109/104 105/110/105 125/131/125 124/130/124
f 105/110/105 106/111/106 126/132/126 125/131/125
f 106/111/106 107/112/107 127/133/127 126/132/126
f 107/112/107 108/113/108 128/134/128 127/133/127
f 108/113/108 109/114/109 129/135/129 128/134/128
f 109/114/109 110/115/110 130/136/130 129/135/129
f 110/115/110 111/116/111 131/137/131 130/136/130
f 111/116/111 112/117/112 132/138/132 131/137/131
f 112/117/112 113/118/113 133/139/133 132/138/132
f 113/118/113 114/119/114 134/140/134 133/139/133
f 114/119/114 115/120/115 135/141/135 134/140/134
f 115/120/115 116/121/116 136/142/136 135/141/135
f 116/121/116 117/122/117 137/143/137 136/142/136
f 117/122/117 118/123/118 138/144/138 137/143/137
f 118/123/118 119/124/119 139/145/139 138/144/138
f 119/124/119 120/125/120 140/146/140 139/145/139
f 120/125/120 101/126/102 121/147/122 140/146/140
f 121/127/122 122/128/121 142/149/141 141/148/142
f 122/128/121 123/129/123 143/150/143 142/149/141
f 123/129/123 124/130/124 144/151/144 143/150/143
f 124/130/124 125/131/125 145/152/145 144/151/144
f 125/131/125 126/132/126 146/153/146 145/152/145
f 126/132/126 127/133/127 147/154/147 146/153/146
f 127/133/127 128/134/128 148/155/148 147/154/147
f 128/134/128 129/135/129 149/156/149 148/155/148
f 129/135/129 130/136/130 150/157/150 149/156/149
f 130/136/130 131/137/131 151/158/151 150/157/150
f 131/137/131 132/138/132 152/159/152 151/158/151
f 132/138/132 133/139/133 153/160/153 152/159/152
f 133/139/133 134/140/134 154/161/154 153/160/153
f 134/140/134 135/141/135 155/162/155 154/161/154
f 135/141/135 136/142/136 156/163/156 155/162/155
f 136/142/136 137/143/137 157/164/157 156/163/156
f 137/143/137 138/144/138 158/165/158 157/164/157
f 138/144/138 139/145/139 159/166/159 158/165/158
f 139/145/139 140/146/140 160/167/160 159/166/159
f 140/146/140 121/147/122 141/168/142 160/167/160
f 141/148/142 142/149/141 162/170/161 161/169/162
f 142/149/141 143/150/143 163/171/163 162/170/161
f 143/150/143 144/151/144 164/172/164 163/171/163
f 144/151/144 145/152/145 165/173/165 164/172/164
f 145/152/145 146/153/146 166/174/166 165/173/165
f 146/153/146 147/154/147 167/175/167 166/174/166
f 147/154/147 148/155/148 168/176/168 167/175/167
f 148/155/148 149/156/149 169/177/169 168/176/168
f 149/156/149 150/157/150 170/178/170 169/177/169
f 150/157/150 151/158/151 171/179/171 170/178/170
f 151/158/151 152/159/152 172/180/172 171/179/171
f 152/159/152 153/160/153 173/181/173 172/180/172
f 153/160/153 154/161/154 174/182/174 173/181/173
f 154/161/154 155/162/155 175/183/175 174/182/174
f 155/162/155 156/163/156 176/184/176 175/183/175
f 156/163/156 157/164/157 177/185/177 176/184/176
f 157/164/157 158/165/158 178/186/178 177/185/177
f 158/165/158 159/166/159 179/187/179 178/186/178
f 159/166/159 160/167/160 180/188/180 179/187/179
f 160/167/160 141/168/142 161/189/162 180/188/180
f 161/169/162 162/170/161 182/191/181 181/190/182
f 162/170/161 163/171/163 183/192/183 182/191/181
f 163/171/163 164/172/164 184/193/184 183/192/183
f 164/172/164 165/173/165 185/194/185 184/193/184
f 165/173/165 166/174/166 186/195/186 185/194/185
f 166/174/166 167/175/167 187/196/187 186/195/186
f 167/175/167 168/176/168 188/197/188 187/196/187
f 168/176/168 169/177/169 189/198/189 188/197/188
f 169/177/169 170/178/170 190/199/190 189/198/189
f 170/178/170 171/179/171 191/200/191 190/199/190
f 171/179/171 172/180/172 192/201/192 191/200/191
f 172/180/172 173/181/173 193/202/193 192/201/192
f 173/181/173 174/182/174 194/203/194 193/202/193
f 174/182/174 175/183/175 195/204/195 194/203/194
f 175/183/175 176/184/176 196/205/196 195/204/195
f 176/184/176 177/185/177 197/206/197 196/205/196
f 177/185/177 178/186/178 198/207/198 197/206/197
f 178/186/178 179/187/179 199/208/199 198/207/198
f 179/187/179 180/188/180 200/209/200 199/208/199
f 180/188/180 161/189/162 181/210/182 200/209/200
f 181/190/182 182/191/181 202/212/201 201/211/202
f 182/191/181 183/192/183 203/213/203 202/212/201
f 183/192/183 184/193/184 204/214/204 203/213/203
f 184/193/184 185/194/185 205/215/205 204/214/204
f 185/194/185 186/195/186 206/216/206 205/215/205
f 186/195/186 187/196/187 207/217/207 206/216/206
f 187/196/187 188/197/188 208/218/208 207/217/207
f 188/197/188 189/198/189 209/219/209 208/218/208
f 189/198/189 190/199/190 210/220/210 209/219/209
f 190/199/190 191/200/191 211/221/211 210/220/210
f 191/200/191 192/201/192 212/222/212 211/221/211
f 192/201/192 193/202/193 213/223/213 212/222/212
f 193/202/193 194/203/194 214/224/214 213/223/213
f 194/203/194 195/204/195 215/225/215 214/224/214
f 195/204/195 196/205/196 216/226/216 215/225/215
f 196/205/196 197/206/197 217/227/217 216/226/216
f 197/206/197 198/207/198 218/228/218 217/227/217
f 198/207/198 199/208/199 219/229/219 218/228/218
f 199/208/199 200/209/200 220/230/220 219/229/219
f 200/209/200 181/210/182 201/231/202 220/230/220
f 201/211/202 202/212/201 222/233/221 221/232/222
f 202/212/201 203/213/203 223/234/223 222/233/221
f 203/213/203 204/214/204 224/235/224 223/234/223
f 204/214/204 205/215/205 225/236/225 224/235/224
f 205/215/205 206/216/206 226/237/226 225/236/225
f 206/216/206 207/217/207 227/238/227 226/237/226
f 207/217/207 208/218/208 228/239/228 227/238/227
f 208/218/208 209/219/209 229/240/229 228/239/228
f 209/219/209 210/220/210 230/241/230 229/240/229
f 210/220/210 211/221/211 231/242/231 230/241/230
f 211/221/211 212/222/212 232/243/232 231/242/231
f 212/222/212 213/223/213 233/244/233 232/243/232
f 213/223/213 214/224/214 234/245/234 233/244/233
f 214/224/214 215/225/215 235/246/235 234/245/234
f 215/225/215 216/226/216 236/247/236 235/246/235
f 216/226/216 217/227/217 237/248/237 236/247/236
f 217/227/217 218/228/218 238/249/238 237/248/237
f 218/228/218 219/229/219 239/250/239 238/249/238
f 219/229/219 220/230/220 240/251/240 239/250/239
f 220/230/220 201/231/202 221/252/222 240/251/240
f 221/232/222 222/233/221 242/254/241 241/253/242
f 222/233/221 223/234/223 243/255/243 242/254/241
f 223/234/223 224/235/224 244/256/244 243/255/243
f 224/235/224 225/236/225 245/257/245 244/256/244
f 225/236/225 226/237/226 246/258/246 245/257/245
f 226/237/226 227/238/227 247/259/247 246/258/246
f 227/238/227 228/239/228 248/260/248 247/259/247
f 228/239/228 229/240/229 249/261/249 248/260/248
f 229/240/229 230/241/230 250/262/250 249/261/249
f 230/241/230 231/242/231 251/263/251 250/262/250
f 231/242/231 232/243/232 252/264/252 251/263/251
f 232/243/232 233/244/233 253/265/253 252/264/252
f 233/244/233 234/245/234 254/266/254 253/265/253
f 234/245/234 235/246/235 255/267/255 254/266/254
f 235/246/235 236/247/236 256/268/256 255/267/255
f 236/247/236 237/248/237 257/269/257 256/268/256
f 237/248/237 238/249/238 258/270/258 257/269/257
f 238/249/238 239/250/239 259/271/259 258/270/258
f 239/250/239 240/251/240 260/272/260 259/271/259
f 240/251/240 221/252/222 241/273/242 260/272/260
f 241/253/242 242/254/241 262/275/261 261/274/262
f 242/254/241 243/255/243 263/276/263 262/275/261
f 243/255/243 244/256/244 264/277/264 263/276/263
f 244/256/244 245/257/245 265/278/265 264/277/264
f 245/257/245 246/258/246 266/279/266 265/278/265
f 246/258/246 247/259/247 267/280/267 266/279/266
f 247/259/247 248/260/248 268/281/268 267/280/267
f 248/260/248 249/261/249 269/282/269 268/281/268
f 249/261/249 250/262/250 270/283/270 269/282/269
f 250/262/250 251/263/251 271/284/271 270/283/270
f 251/263/251 252/264/252 272/285/272 271/284/271
f 252/264/252 253/265/253 273/286/273 272/285/272
f 253/265/253 254/266/254 274/287/274 273/286/273
f 254/266/254 255/267/255 275/288/275 274/287/274
f 255/267/255 256/268/256 276/289/276 275/288/275
f 256/268/256 257/269/257 277/290/277 276/289/276
f 257/269/257 258/270/258 278/291/278 277/290/277
f 258/270/258 259/271/259 279/292/279 278/291/278
f 259/271/259 260/272/260 280/293/280 279/292/279
f 260/272/260 241/273/242 261/294/262 280/293/280
f 2/2/2 1/1/1 281/295/281
f 3/3/5 2/2/2 281/296/281
f 4/4/7 3/3/5 281/297/281
f 5/5/9 4/4/7 281/298/281
f 6/6/11 5/5/9 281/299/281
f 7/7/13 6/6/11 281/300/281
f 8/8/15 7/7/13 281/301/281
f 9/9/17 8/8/15 281/302/281
f 10/10/19 9/9/17 281/303/281
f 11/11/21 10/10/19 281/304/281
f 12/12/23 11/11/21 281/305/281
f 13/13/25 12/12/23 281/306/281
f 14/14/27 13/13/25 281/307/281
f 15/15/29 14/14/27 281/308/281
f 16/16/31 15/15/29 281/309/281
f 17/17/33 16/16/31 281/310/281
f 18/18/35 17/17/33 281/311/281
f 19/19/37 18/18/35 281/312/281
f 20/20/39 19/19/37 281/313/281
f 1/21/1 20/20/39 281/314/281
f 261/274/262 262/275/261 282/315/282
f 262/275/261 263/276/263 282/316/282
f 263/276/263 264/277/264 282/317/282
f 264/277/264 265/278/265 282/318/282
f 265/278/265 266/279/266 282/319/282
f 266/279/266 267/280/267 282/320/282
f 267/280/267 268/281/268 282/321/282
f 268/281/268 269/282/269 282/322/282
f 269/282/269 270/283/270 282/323/282
f 270/283/270 271/284/271 282/324/282
f 271/284/271 272/285/272 282/325/282
f 272/285/272 273/286/273 282/326/282
f 273/286/273 274/287/274 282/327/282
f 274/287/274 275/288/275 282/328/282
f 275/288/275 276/289/276 282/329/282
f 276/289/276 277/290/277 282/330/282
f 277/290/277 278/291/278 282/331/282
f 278/291/278 279/292/279 282/332/282
f 279/292/279 280/293/280 282/333/282
f 280/293/280 261/294/262 282/334/282




# End of RingParticleB.obj

