# This file uses centimeters as units for non-parametric coordinates.

mtllib Moons.mtl
v 0.197736 -0.978148 -0.064248
v 0.168204 -0.978148 -0.122208
v 0.122208 -0.978148 -0.168204
v 0.064248 -0.978148 -0.197736
v 0.000000 -0.978148 -0.207912
v -0.064248 -0.978148 -0.197736
v -0.122207 -0.978148 -0.168204
v -0.168204 -0.978148 -0.122207
v -0.197736 -0.978148 -0.064248
v -0.207912 -0.978148 0.000000
v -0.197736 -0.978148 0.064248
v -0.168204 -0.978148 0.122207
v -0.122207 -0.978148 0.168204
v -0.064248 -0.978148 0.197736
v -0.000000 -0.978148 0.207912
v 0.064248 -0.978148 0.197736
v 0.122207 -0.978148 0.168204
v 0.168204 -0.978148 0.122207
v 0.197736 -0.978148 0.064248
v 0.207912 -0.978148 0.000000
v 0.386830 -0.913545 -0.125689
v 0.329057 -0.913545 -0.239074
v 0.239074 -0.913545 -0.329057
v 0.125689 -0.913545 -0.386830
v 0.000000 -0.913545 -0.406737
v -0.125689 -0.913545 -0.386830
v -0.239074 -0.913545 -0.329057
v -0.329057 -0.913545 -0.239074
v -0.386830 -0.913545 -0.125689
v -0.406737 -0.913545 0.000000
v -0.386830 -0.913545 0.125689
v -0.329057 -0.913545 0.239074
v -0.239074 -0.913545 0.329057
v -0.125689 -0.913545 0.386830
v -0.000000 -0.913545 0.406737
v 0.125689 -0.913545 0.386830
v 0.239074 -0.913545 0.329057
v 0.329057 -0.913545 0.239074
v 0.386830 -0.913545 0.125689
v 0.406737 -0.913545 0.000000
v 0.559017 -0.809017 -0.181636
v 0.475529 -0.809017 -0.345492
v 0.345492 -0.809017 -0.475529
v 0.181636 -0.809017 -0.559017
v 0.000000 -0.809017 -0.587786
v -0.181636 -0.809017 -0.559017
v -0.345492 -0.809017 -0.475528
v -0.475528 -0.809017 -0.345492
v -0.559017 -0.809017 -0.181636
v -0.587785 -0.809017 0.000000
v -0.559017 -0.809017 0.181636
v -0.475528 -0.809017 0.345492
v -0.345492 -0.809017 0.475528
v -0.181636 -0.809017 0.559017
v -0.000000 -0.809017 0.587785
v 0.181636 -0.809017 0.559017
v 0.345491 -0.809017 0.475528
v 0.475528 -0.809017 0.345492
v 0.559017 -0.809017 0.181636
v 0.587785 -0.809017 0.000000
v 0.706773 -0.669131 -0.229645
v 0.601217 -0.669131 -0.436810
v 0.436810 -0.669131 -0.601217
v 0.229645 -0.669131 -0.706773
v 0.000000 -0.669131 -0.743145
v -0.229645 -0.669131 -0.706773
v -0.436810 -0.669131 -0.601217
v -0.601217 -0.669131 -0.436810
v -0.706773 -0.669131 -0.229644
v -0.743145 -0.669131 0.000000
v -0.706773 -0.669131 0.229644
v -0.601217 -0.669131 0.436810
v -0.436810 -0.669131 0.601217
v -0.229644 -0.669131 0.706773
v -0.000000 -0.669131 0.743145
v 0.229644 -0.669131 0.706773
v 0.436810 -0.669131 0.601217
v 0.601217 -0.669131 0.436810
v 0.706773 -0.669131 0.229644
v 0.743145 -0.669131 0.000000
v 0.823640 -0.500000 -0.267617
v 0.700630 -0.500000 -0.509037
v 0.509037 -0.500000 -0.700630
v 0.267617 -0.500000 -0.823640
v 0.000000 -0.500000 -0.866026
v -0.267617 -0.500000 -0.823640
v -0.509037 -0.500000 -0.700630
v -0.700630 -0.500000 -0.509037
v -0.823639 -0.500000 -0.267617
v -0.866026 -0.500000 0.000000
v -0.823639 -0.500000 0.267617
v -0.700629 -0.500000 0.509037
v -0.509037 -0.500000 0.700629
v -0.267617 -0.500000 0.823639
v -0.000000 -0.500000 0.866026
v 0.267617 -0.500000 0.823639
v 0.509037 -0.500000 0.700629
v 0.700629 -0.500000 0.509037
v 0.823639 -0.500000 0.267617
v 0.866025 -0.500000 0.000000
v 0.904509 -0.309017 -0.293893
v 0.769421 -0.309017 -0.559017
v 0.559017 -0.309017 -0.769421
v 0.293893 -0.309017 -0.904509
v 0.000000 -0.309017 -0.951057
v -0.293893 -0.309017 -0.904509
v -0.559017 -0.309017 -0.769421
v -0.769421 -0.309017 -0.559017
v -0.904509 -0.309017 -0.293893
v -0.951057 -0.309017 0.000000
v -0.904509 -0.309017 0.293893
v -0.769421 -0.309017 0.559017
v -0.559017 -0.309017 0.769421
v -0.293893 -0.309017 0.904509
v -0.000000 -0.309017 0.951057
v 0.293893 -0.309017 0.904509
v 0.559017 -0.309017 0.769421
v 0.769421 -0.309017 0.559017
v 0.904509 -0.309017 0.293893
v 0.951057 -0.309017 0.000000
v 0.945847 -0.104528 -0.307324
v 0.804586 -0.104528 -0.584566
v 0.584566 -0.104528 -0.804586
v 0.307324 -0.104528 -0.945847
v 0.000000 -0.104528 -0.994522
v -0.307324 -0.104528 -0.945847
v -0.584566 -0.104528 -0.804585
v -0.804585 -0.104528 -0.584565
v -0.945847 -0.104528 -0.307324
v -0.994522 -0.104528 0.000000
v -0.945847 -0.104528 0.307324
v -0.804585 -0.104528 0.584565
v -0.584565 -0.104528 0.804585
v -0.307324 -0.104528 0.945847
v -0.000000 -0.104528 0.994522
v 0.307324 -0.104528 0.945847
v 0.584565 -0.104528 0.804585
v 0.804585 -0.104528 0.584565
v 0.945847 -0.104528 0.307324
v 0.994522 -0.104528 0.000000
v 0.945847 0.104528 -0.307324
v 0.804586 0.104528 -0.584566
v 0.584566 0.104528 -0.804586
v 0.307324 0.104528 -0.945847
v 0.000000 0.104528 -0.994522
v -0.307324 0.104528 -0.945847
v -0.584566 0.104528 -0.804585
v -0.804585 0.104528 -0.584565
v -0.945847 0.104528 -0.307324
v -0.994522 0.104528 0.000000
v -0.945847 0.104528 0.307324
v -0.804585 0.104528 0.584565
v -0.584565 0.104528 0.804585
v -0.307324 0.104528 0.945847
v -0.000000 0.104528 0.994522
v 0.307324 0.104528 0.945847
v 0.584565 0.104528 0.804585
v 0.804585 0.104528 0.584565
v 0.945847 0.104528 0.307324
v 0.994522 0.104528 0.000000
v 0.904509 0.309017 -0.293893
v 0.769421 0.309017 -0.559017
v 0.559017 0.309017 -0.769421
v 0.293893 0.309017 -0.904509
v 0.000000 0.309017 -0.951057
v -0.293893 0.309017 -0.904509
v -0.559017 0.309017 -0.769421
v -0.769421 0.309017 -0.559017
v -0.904509 0.309017 -0.293893
v -0.951057 0.309017 0.000000
v -0.904509 0.309017 0.293893
v -0.769421 0.309017 0.559017
v -0.559017 0.309017 0.769421
v -0.293893 0.309017 0.904509
v -0.000000 0.309017 0.951057
v 0.293893 0.309017 0.904509
v 0.559017 0.309017 0.769421
v 0.769421 0.309017 0.559017
v 0.904509 0.309017 0.293893
v 0.951057 0.309017 0.000000
v 0.823640 0.500000 -0.267617
v 0.700630 0.500000 -0.509037
v 0.509037 0.500000 -0.700630
v 0.267617 0.500000 -0.823640
v 0.000000 0.500000 -0.866026
v -0.267617 0.500000 -0.823640
v -0.509037 0.500000 -0.700630
v -0.700630 0.500000 -0.509037
v -0.823639 0.500000 -0.267617
v -0.866026 0.500000 0.000000
v -0.823639 0.500000 0.267617
v -0.700629 0.500000 0.509037
v -0.509037 0.500000 0.700629
v -0.267617 0.500000 0.823639
v -0.000000 0.500000 0.866026
v 0.267617 0.500000 0.823639
v 0.509037 0.500000 0.700629
v 0.700629 0.500000 0.509037
v 0.823639 0.500000 0.267617
v 0.866025 0.500000 0.000000
v 0.706773 0.669131 -0.229645
v 0.601217 0.669131 -0.436810
v 0.436810 0.669131 -0.601217
v 0.229645 0.669131 -0.706773
v 0.000000 0.669131 -0.743145
v -0.229645 0.669131 -0.706773
v -0.436810 0.669131 -0.601217
v -0.601217 0.669131 -0.436810
v -0.706773 0.669131 -0.229644
v -0.743145 0.669131 0.000000
v -0.706773 0.669131 0.229644
v -0.601217 0.669131 0.436810
v -0.436810 0.669131 0.601217
v -0.229644 0.669131 0.706773
v -0.000000 0.669131 0.743145
v 0.229644 0.669131 0.706773
v 0.436810 0.669131 0.601217
v 0.601217 0.669131 0.436810
v 0.706773 0.669131 0.229644
v 0.743145 0.669131 0.000000
v 0.559017 0.809017 -0.181636
v 0.475529 0.809017 -0.345492
v 0.345492 0.809017 -0.475529
v 0.181636 0.809017 -0.559017
v 0.000000 0.809017 -0.587786
v -0.181636 0.809017 -0.559017
v -0.345492 0.809017 -0.475528
v -0.475528 0.809017 -0.345492
v -0.559017 0.809017 -0.181636
v -0.587785 0.809017 0.000000
v -0.559017 0.809017 0.181636
v -0.475528 0.809017 0.345492
v -0.345492 0.809017 0.475528
v -0.181636 0.809017 0.559017
v -0.000000 0.809017 0.587785
v 0.181636 0.809017 0.559017
v 0.345491 0.809017 0.475528
v 0.475528 0.809017 0.345492
v 0.559017 0.809017 0.181636
v 0.587785 0.809017 0.000000
v 0.386830 0.913545 -0.125689
v 0.329057 0.913545 -0.239074
v 0.239074 0.913545 -0.329057
v 0.125689 0.913545 -0.386830
v 0.000000 0.913545 -0.406737
v -0.125689 0.913545 -0.386830
v -0.239074 0.913545 -0.329057
v -0.329057 0.913545 -0.239074
v -0.386830 0.913545 -0.125689
v -0.406737 0.913545 0.000000
v -0.386830 0.913545 0.125689
v -0.329057 0.913545 0.239074
v -0.239074 0.913545 0.329057
v -0.125689 0.913545 0.386830
v -0.000000 0.913545 0.406737
v 0.125689 0.913545 0.386830
v 0.239074 0.913545 0.329057
v 0.329057 0.913545 0.239074
v 0.386830 0.913545 0.125689
v 0.406737 0.913545 0.000000
v 0.197736 0.978148 -0.064248
v 0.168204 0.978148 -0.122208
v 0.122208 0.978148 -0.168204
v 0.064248 0.978148 -0.197736
v 0.000000 0.978148 -0.207912
v -0.064248 0.978148 -0.197736
v -0.122207 0.978148 -0.168204
v -0.168204 0.978148 -0.122207
v -0.197736 0.978148 -0.064248
v -0.207912 0.978148 0.000000
v -0.197736 0.978148 0.064248
v -0.168204 0.978148 0.122207
v -0.122207 0.978148 0.168204
v -0.064248 0.978148 0.197736
v -0.000000 0.978148 0.207912
v 0.064248 0.978148 0.197736
v 0.122207 0.978148 0.168204
v 0.168204 0.978148 0.122207
v 0.197736 0.978148 0.064248
v 0.207912 0.978148 0.000000
v 0.000000 -1.000000 0.000000
v 0.000000 1.000000 0.000000
vt 0.000000 0.066667
vt 0.050000 0.066667
vt 0.100000 0.066667
vt 0.150000 0.066667
vt 0.200000 0.066667
vt 0.250000 0.066667
vt 0.300000 0.066667
vt 0.350000 0.066667
vt 0.400000 0.066667
vt 0.450000 0.066667
vt 0.500000 0.066667
vt 0.550000 0.066667
vt 0.600000 0.066667
vt 0.650000 0.066667
vt 0.700000 0.066667
vt 0.750000 0.066667
vt 0.800000 0.066667
vt 0.850000 0.066667
vt 0.900000 0.066667
vt 0.950000 0.066667
vt 1.000000 0.066667
vt 0.000000 0.133333
vt 0.050000 0.133333
vt 0.100000 0.133333
vt 0.150000 0.133333
vt 0.200000 0.133333
vt 0.250000 0.133333
vt 0.300000 0.133333
vt 0.350000 0.133333
vt 0.400000 0.133333
vt 0.450000 0.133333
vt 0.500000 0.133333
vt 0.550000 0.133333
vt 0.600000 0.133333
vt 0.650000 0.133333
vt 0.700000 0.133333
vt 0.750000 0.133333
vt 0.800000 0.133333
vt 0.850000 0.133333
vt 0.900000 0.133333
vt 0.950000 0.133333
vt 1.000000 0.133333
vt 0.000000 0.200000
vt 0.050000 0.200000
vt 0.100000 0.200000
vt 0.150000 0.200000
vt 0.200000 0.200000
vt 0.250000 0.200000
vt 0.300000 0.200000
vt 0.350000 0.200000
vt 0.400000 0.200000
vt 0.450000 0.200000
vt 0.500000 0.200000
vt 0.550000 0.200000
vt 0.600000 0.200000
vt 0.650000 0.200000
vt 0.700000 0.200000
vt 0.750000 0.200000
vt 0.800000 0.200000
vt 0.850000 0.200000
vt 0.900000 0.200000
vt 0.950000 0.200000
vt 1.000000 0.200000
vt 0.000000 0.266667
vt 0.050000 0.266667
vt 0.100000 0.266667
vt 0.150000 0.266667
vt 0.200000 0.266667
vt 0.250000 0.266667
vt 0.300000 0.266667
vt 0.350000 0.266667
vt 0.400000 0.266667
vt 0.450000 0.266667
vt 0.500000 0.266667
vt 0.550000 0.266667
vt 0.600000 0.266667
vt 0.650000 0.266667
vt 0.700000 0.266667
vt 0.750000 0.266667
vt 0.800000 0.266667
vt 0.850000 0.266667
vt 0.900000 0.266667
vt 0.950000 0.266667
vt 1.000000 0.266667
vt 0.000000 0.333333
vt 0.050000 0.333333
vt 0.100000 0.333333
vt 0.150000 0.333333
vt 0.200000 0.333333
vt 0.250000 0.333333
vt 0.300000 0.333333
vt 0.350000 0.333333
vt 0.400000 0.333333
vt 0.450000 0.333333
vt 0.500000 0.333333
vt 0.550000 0.333333
vt 0.600000 0.333333
vt 0.650000 0.333333
vt 0.700000 0.333333
vt 0.750000 0.333333
vt 0.800000 0.333333
vt 0.850000 0.333333
vt 0.900000 0.333333
vt 0.950000 0.333333
vt 1.000000 0.333333
vt 0.000000 0.400000
vt 0.050000 0.400000
vt 0.100000 0.400000
vt 0.150000 0.400000
vt 0.200000 0.400000
vt 0.250000 0.400000
vt 0.300000 0.400000
vt 0.350000 0.400000
vt 0.400000 0.400000
vt 0.450000 0.400000
vt 0.500000 0.400000
vt 0.550000 0.400000
vt 0.600000 0.400000
vt 0.650000 0.400000
vt 0.700000 0.400000
vt 0.750000 0.400000
vt 0.800000 0.400000
vt 0.850000 0.400000
vt 0.900000 0.400000
vt 0.950000 0.400000
vt 1.000000 0.400000
vt 0.000000 0.466667
vt 0.050000 0.466667
vt 0.100000 0.466667
vt 0.150000 0.466667
vt 0.200000 0.466667
vt 0.250000 0.466667
vt 0.300000 0.466667
vt 0.350000 0.466667
vt 0.400000 0.466667
vt 0.450000 0.466667
vt 0.500000 0.466667
vt 0.550000 0.466667
vt 0.600000 0.466667
vt 0.650000 0.466667
vt 0.700000 0.466667
vt 0.750000 0.466667
vt 0.800000 0.466667
vt 0.850000 0.466667
vt 0.900000 0.466667
vt 0.950000 0.466667
vt 1.000000 0.466667
vt 0.000000 0.533333
vt 0.050000 0.533333
vt 0.100000 0.533333
vt 0.150000 0.533333
vt 0.200000 0.533333
vt 0.250000 0.533333
vt 0.300000 0.533333
vt 0.350000 0.533333
vt 0.400000 0.533333
vt 0.450000 0.533333
vt 0.500000 0.533333
vt 0.550000 0.533333
vt 0.600000 0.533333
vt 0.650000 0.533333
vt 0.700000 0.533333
vt 0.750000 0.533333
vt 0.800000 0.533333
vt 0.850000 0.533333
vt 0.900000 0.533333
vt 0.950000 0.533333
vt 1.000000 0.533333
vt 0.000000 0.600000
vt 0.050000 0.600000
vt 0.100000 0.600000
vt 0.150000 0.600000
vt 0.200000 0.600000
vt 0.250000 0.600000
vt 0.300000 0.600000
vt 0.350000 0.600000
vt 0.400000 0.600000
vt 0.450000 0.600000
vt 0.500000 0.600000
vt 0.550000 0.600000
vt 0.600000 0.600000
vt 0.650000 0.600000
vt 0.700000 0.600000
vt 0.750000 0.600000
vt 0.800000 0.600000
vt 0.850000 0.600000
vt 0.900000 0.600000
vt 0.950000 0.600000
vt 1.000000 0.600000
vt 0.000000 0.666667
vt 0.050000 0.666667
vt 0.100000 0.666667
vt 0.150000 0.666667
vt 0.200000 0.666667
vt 0.250000 0.666667
vt 0.300000 0.666667
vt 0.350000 0.666667
vt 0.400000 0.666667
vt 0.450000 0.666667
vt 0.500000 0.666667
vt 0.550000 0.666667
vt 0.600000 0.666667
vt 0.650000 0.666667
vt 0.700000 0.666667
vt 0.750000 0.666667
vt 0.800000 0.666667
vt 0.850000 0.666667
vt 0.900000 0.666667
vt 0.950000 0.666667
vt 1.000000 0.666667
vt 0.000000 0.733333
vt 0.050000 0.733333
vt 0.100000 0.733333
vt 0.150000 0.733333
vt 0.200000 0.733333
vt 0.250000 0.733333
vt 0.300000 0.733333
vt 0.350000 0.733333
vt 0.400000 0.733333
vt 0.450000 0.733333
vt 0.500000 0.733333
vt 0.550000 0.733333
vt 0.600000 0.733333
vt 0.650000 0.733333
vt 0.700000 0.733333
vt 0.750000 0.733333
vt 0.800000 0.733333
vt 0.850000 0.733333
vt 0.900000 0.733333
vt 0.950000 0.733333
vt 1.000000 0.733333
vt 0.000000 0.800000
vt 0.050000 0.800000
vt 0.100000 0.800000
vt 0.150000 0.800000
vt 0.200000 0.800000
vt 0.250000 0.800000
vt 0.300000 0.800000
vt 0.350000 0.800000
vt 0.400000 0.800000
vt 0.450000 0.800000
vt 0.500000 0.800000
vt 0.550000 0.800000
vt 0.600000 0.800000
vt 0.650000 0.800000
vt 0.700000 0.800000
vt 0.750000 0.800000
vt 0.800000 0.800000
vt 0.850000 0.800000
vt 0.900000 0.800000
vt 0.950000 0.800000
vt 1.000000 0.800000
vt 0.000000 0.866667
vt 0.050000 0.866667
vt 0.100000 0.866667
vt 0.150000 0.866667
vt 0.200000 0.866667
vt 0.250000 0.866667
vt 0.300000 0.866667
vt 0.350000 0.866667
vt 0.400000 0.866667
vt 0.450000 0.866667
vt 0.500000 0.866667
vt 0.550000 0.866667
vt 0.600000 0.866667
vt 0.650000 0.866667
vt 0.700000 0.866667
vt 0.750000 0.866667
vt 0.800000 0.866667
vt 0.850000 0.866667
vt 0.900000 0.866667
vt 0.950000 0.866667
vt 1.000000 0.866667
vt 0.000000 0.933333
vt 0.050000 0.933333
vt 0.100000 0.933333
vt 0.150000 0.933333
vt 0.200000 0.933333
vt 0.250000 0.933333
vt 0.300000 0.933333
vt 0.350000 0.933333
vt 0.400000 0.933333
vt 0.450000 0.933333
vt 0.500000 0.933333
vt 0.550000 0.933333
vt 0.600000 0.933333
vt 0.650000 0.933333
vt 0.700000 0.933333
vt 0.750000 0.933333
vt 0.800000 0.933333
vt 0.850000 0.933333
vt 0.900000 0.933333
vt 0.950000 0.933333
vt 1.000000 0.933333
vt 0.025000 0.000000
vt 0.075000 0.000000
vt 0.125000 0.000000
vt 0.175000 0.000000
vt 0.225000 0.000000
vt 0.275000 0.000000
vt 0.325000 0.000000
vt 0.375000 0.000000
vt 0.425000 0.000000
vt 0.475000 0.000000
vt 0.525000 0.000000
vt 0.575000 0.000000
vt 0.625000 0.000000
vt 0.675000 0.000000
vt 0.725000 0.000000
vt 0.775000 0.000000
vt 0.825000 0.000000
vt 0.875000 0.000000
vt 0.925000 0.000000
vt 0.975000 0.000000
vt 0.025000 1.000000
vt 0.075000 1.000000
vt 0.125000 1.000000
vt 0.175000 1.000000
vt 0.225000 1.000000
vt 0.275000 1.000000
vt 0.325000 1.000000
vt 0.375000 1.000000
vt 0.425000 1.000000
vt 0.475000 1.000000
vt 0.525000 1.000000
vt 0.575000 1.000000
vt 0.625000 1.000000
vt 0.675000 1.000000
vt 0.725000 1.000000
vt 0.775000 1.000000
vt 0.825000 1.000000
vt 0.875000 1.000000
vt 0.925000 1.000000
vt 0.975000 1.000000
vn 0.197684 -0.978159 -0.064232
vn 0.168160 -0.978159 -0.122175
vn 0.328982 -0.913587 -0.239019
vn 0.386741 -0.913587 -0.125659
vn 0.168160 -0.978159 -0.122175
vn 0.122175 -0.978159 -0.168160
vn 0.239019 -0.913587 -0.328982
vn 0.328982 -0.913587 -0.239019
vn 0.122175 -0.978159 -0.168160
vn 0.064231 -0.978159 -0.197684
vn 0.125660 -0.913587 -0.386741
vn 0.239019 -0.913587 -0.328982
vn 0.064231 -0.978159 -0.197684
vn -0.000000 -0.978159 -0.207857
vn -0.000000 -0.913587 -0.406644
vn 0.125660 -0.913587 -0.386741
vn -0.000000 -0.978159 -0.207857
vn -0.064231 -0.978159 -0.197684
vn -0.125660 -0.913587 -0.386741
vn -0.000000 -0.913587 -0.406644
vn -0.064231 -0.978159 -0.197684
vn -0.122175 -0.978159 -0.168159
vn -0.239019 -0.913587 -0.328982
vn -0.125660 -0.913587 -0.386741
vn -0.122175 -0.978159 -0.168159
vn -0.168160 -0.978159 -0.122175
vn -0.328982 -0.913587 -0.239019
vn -0.239019 -0.913587 -0.328982
vn -0.168160 -0.978159 -0.122175
vn -0.197684 -0.978159 -0.064231
vn -0.386741 -0.913587 -0.125660
vn -0.328982 -0.913587 -0.239019
vn -0.197684 -0.978159 -0.064231
vn -0.207857 -0.978159 -0.000000
vn -0.406644 -0.913587 -0.000000
vn -0.386741 -0.913587 -0.125660
vn -0.207857 -0.978159 -0.000000
vn -0.197684 -0.978159 0.064232
vn -0.386741 -0.913587 0.125660
vn -0.406644 -0.913587 -0.000000
vn -0.197684 -0.978159 0.064232
vn -0.168160 -0.978159 0.122175
vn -0.328982 -0.913587 0.239019
vn -0.386741 -0.913587 0.125660
vn -0.168160 -0.978159 0.122175
vn -0.122175 -0.978159 0.168160
vn -0.239019 -0.913587 0.328982
vn -0.328982 -0.913587 0.239019
vn -0.122175 -0.978159 0.168160
vn -0.064231 -0.978159 0.197684
vn -0.125660 -0.913587 0.386741
vn -0.239019 -0.913587 0.328982
vn -0.064231 -0.978159 0.197684
vn 0.000000 -0.978159 0.207858
vn 0.000000 -0.913587 0.406644
vn -0.125660 -0.913587 0.386741
vn 0.000000 -0.978159 0.207858
vn 0.064231 -0.978159 0.197684
vn 0.125660 -0.913587 0.386741
vn 0.000000 -0.913587 0.406644
vn 0.064231 -0.978159 0.197684
vn 0.122175 -0.978159 0.168160
vn 0.239019 -0.913587 0.328982
vn 0.125660 -0.913587 0.386741
vn 0.122175 -0.978159 0.168160
vn 0.168160 -0.978159 0.122176
vn 0.328982 -0.913587 0.239019
vn 0.239019 -0.913587 0.328982
vn 0.168160 -0.978159 0.122176
vn 0.197684 -0.978159 0.064232
vn 0.386742 -0.913587 0.125660
vn 0.328982 -0.913587 0.239019
vn 0.197684 -0.978159 0.064232
vn 0.207857 -0.978159 0.000000
vn 0.406644 -0.913587 0.000001
vn 0.386742 -0.913587 0.125660
vn 0.207857 -0.978159 0.000000
vn 0.197684 -0.978159 -0.064232
vn 0.386741 -0.913587 -0.125659
vn 0.406644 -0.913587 0.000001
vn 0.386741 -0.913587 -0.125659
vn 0.328982 -0.913587 -0.239019
vn 0.475443 -0.809093 -0.345430
vn 0.558917 -0.809093 -0.181603
vn 0.328982 -0.913587 -0.239019
vn 0.239019 -0.913587 -0.328982
vn 0.345430 -0.809093 -0.475443
vn 0.475443 -0.809093 -0.345430
vn 0.239019 -0.913587 -0.328982
vn 0.125660 -0.913587 -0.386741
vn 0.181603 -0.809093 -0.558917
vn 0.345430 -0.809093 -0.475443
vn 0.125660 -0.913587 -0.386741
vn -0.000000 -0.913587 -0.406644
vn -0.000000 -0.809093 -0.587681
vn 0.181603 -0.809093 -0.558917
vn -0.000000 -0.913587 -0.406644
vn -0.125660 -0.913587 -0.386741
vn -0.181603 -0.809093 -0.558917
vn -0.000000 -0.809093 -0.587681
vn -0.125660 -0.913587 -0.386741
vn -0.239019 -0.913587 -0.328982
vn -0.345430 -0.809093 -0.475443
vn -0.181603 -0.809093 -0.558917
vn -0.239019 -0.913587 -0.328982
vn -0.328982 -0.913587 -0.239019
vn -0.475444 -0.809093 -0.345430
vn -0.345430 -0.809093 -0.475443
vn -0.328982 -0.913587 -0.239019
vn -0.386741 -0.913587 -0.125660
vn -0.558917 -0.809093 -0.181603
vn -0.475444 -0.809093 -0.345430
vn -0.386741 -0.913587 -0.125660
vn -0.406644 -0.913587 -0.000000
vn -0.587681 -0.809093 -0.000000
vn -0.558917 -0.809093 -0.181603
vn -0.406644 -0.913587 -0.000000
vn -0.386741 -0.913587 0.125660
vn -0.558917 -0.809093 0.181603
vn -0.587681 -0.809093 -0.000000
vn -0.386741 -0.913587 0.125660
vn -0.328982 -0.913587 0.239019
vn -0.475444 -0.809093 0.345430
vn -0.558917 -0.809093 0.181603
vn -0.328982 -0.913587 0.239019
vn -0.239019 -0.913587 0.328982
vn -0.345430 -0.809093 0.475444
vn -0.475444 -0.809093 0.345430
vn -0.239019 -0.913587 0.328982
vn -0.125660 -0.913587 0.386741
vn -0.181603 -0.809093 0.558917
vn -0.345430 -0.809093 0.475444
vn -0.125660 -0.913587 0.386741
vn 0.000000 -0.913587 0.406644
vn 0.000000 -0.809093 0.587681
vn -0.181603 -0.809093 0.558917
vn 0.000000 -0.913587 0.406644
vn 0.125660 -0.913587 0.386741
vn 0.181603 -0.809093 0.558918
vn 0.000000 -0.809093 0.587681
vn 0.125660 -0.913587 0.386741
vn 0.239019 -0.913587 0.328982
vn 0.345430 -0.809093 0.475444
vn 0.181603 -0.809093 0.558918
vn 0.239019 -0.913587 0.328982
vn 0.328982 -0.913587 0.239019
vn 0.475444 -0.809093 0.345430
vn 0.345430 -0.809093 0.475444
vn 0.328982 -0.913587 0.239019
vn 0.386742 -0.913587 0.125660
vn 0.558918 -0.809093 0.181603
vn 0.475444 -0.809093 0.345430
vn 0.386742 -0.913587 0.125660
vn 0.406644 -0.913587 0.000001
vn 0.587681 -0.809093 0.000001
vn 0.558918 -0.809093 0.181603
vn 0.406644 -0.913587 0.000001
vn 0.386741 -0.913587 -0.125659
vn 0.558917 -0.809093 -0.181603
vn 0.587681 -0.809093 0.000001
vn 0.558917 -0.809093 -0.181603
vn 0.475443 -0.809093 -0.345430
vn 0.601144 -0.669231 -0.436757
vn 0.706687 -0.669231 -0.229616
vn 0.475443 -0.809093 -0.345430
vn 0.345430 -0.809093 -0.475443
vn 0.436757 -0.669231 -0.601144
vn 0.601144 -0.669231 -0.436757
vn 0.345430 -0.809093 -0.475443
vn 0.181603 -0.809093 -0.558917
vn 0.229616 -0.669231 -0.706687
vn 0.436757 -0.669231 -0.601144
vn 0.181603 -0.809093 -0.558917
vn -0.000000 -0.809093 -0.587681
vn -0.000000 -0.669231 -0.743055
vn 0.229616 -0.669231 -0.706687
vn -0.000000 -0.809093 -0.587681
vn -0.181603 -0.809093 -0.558917
vn -0.229617 -0.669231 -0.706687
vn -0.000000 -0.669231 -0.743055
vn -0.181603 -0.809093 -0.558917
vn -0.345430 -0.809093 -0.475443
vn -0.436757 -0.669231 -0.601144
vn -0.229617 -0.669231 -0.706687
vn -0.345430 -0.809093 -0.475443
vn -0.475444 -0.809093 -0.345430
vn -0.601144 -0.669231 -0.436756
vn -0.436757 -0.669231 -0.601144
vn -0.475444 -0.809093 -0.345430
vn -0.558917 -0.809093 -0.181603
vn -0.706687 -0.669231 -0.229616
vn -0.601144 -0.669231 -0.436756
vn -0.558917 -0.809093 -0.181603
vn -0.587681 -0.809093 -0.000000
vn -0.743055 -0.669231 -0.000000
vn -0.706687 -0.669231 -0.229616
vn -0.587681 -0.809093 -0.000000
vn -0.558917 -0.809093 0.181603
vn -0.706687 -0.669231 0.229617
vn -0.743055 -0.669231 -0.000000
vn -0.558917 -0.809093 0.181603
vn -0.475444 -0.809093 0.345430
vn -0.601144 -0.669231 0.436757
vn -0.706687 -0.669231 0.229617
vn -0.475444 -0.809093 0.345430
vn -0.345430 -0.809093 0.475444
vn -0.436757 -0.669231 0.601144
vn -0.601144 -0.669231 0.436757
vn -0.345430 -0.809093 0.475444
vn -0.181603 -0.809093 0.558917
vn -0.229617 -0.669231 0.706687
vn -0.436757 -0.669231 0.601144
vn -0.181603 -0.809093 0.558917
vn 0.000000 -0.809093 0.587681
vn 0.000000 -0.669231 0.743055
vn -0.229617 -0.669231 0.706687
vn 0.000000 -0.809093 0.587681
vn 0.181603 -0.809093 0.558918
vn 0.229617 -0.669231 0.706687
vn 0.000000 -0.669231 0.743055
vn 0.181603 -0.809093 0.558918
vn 0.345430 -0.809093 0.475444
vn 0.436757 -0.669231 0.601144
vn 0.229617 -0.669231 0.706687
vn 0.345430 -0.809093 0.475444
vn 0.475444 -0.809093 0.345430
vn 0.601144 -0.669231 0.436757
vn 0.436757 -0.669231 0.601144
vn 0.475444 -0.809093 0.345430
vn 0.558918 -0.809093 0.181603
vn 0.706687 -0.669231 0.229617
vn 0.601144 -0.669231 0.436757
vn 0.558918 -0.809093 0.181603
vn 0.587681 -0.809093 0.000001
vn 0.743055 -0.669231 0.000001
vn 0.706687 -0.669231 0.229617
vn 0.587681 -0.809093 0.000001
vn 0.558917 -0.809093 -0.181603
vn 0.706687 -0.669231 -0.229616
vn 0.743055 -0.669231 0.000001
vn 0.706687 -0.669231 -0.229616
vn 0.601144 -0.669231 -0.436757
vn 0.700582 -0.500101 -0.509003
vn 0.823584 -0.500101 -0.267598
vn 0.601144 -0.669231 -0.436757
vn 0.436757 -0.669231 -0.601144
vn 0.509003 -0.500101 -0.700582
vn 0.700582 -0.500101 -0.509003
vn 0.436757 -0.669231 -0.601144
vn 0.229616 -0.669231 -0.706687
vn 0.267598 -0.500101 -0.823584
vn 0.509003 -0.500101 -0.700582
vn 0.229616 -0.669231 -0.706687
vn -0.000000 -0.669231 -0.743055
vn -0.000000 -0.500101 -0.865967
vn 0.267598 -0.500101 -0.823584
vn -0.000000 -0.669231 -0.743055
vn -0.229617 -0.669231 -0.706687
vn -0.267599 -0.500101 -0.823584
vn -0.000000 -0.500101 -0.865967
vn -0.229617 -0.669231 -0.706687
vn -0.436757 -0.669231 -0.601144
vn -0.509003 -0.500101 -0.700582
vn -0.267599 -0.500101 -0.823584
vn -0.436757 -0.669231 -0.601144
vn -0.601144 -0.669231 -0.436756
vn -0.700582 -0.500101 -0.509002
vn -0.509003 -0.500101 -0.700582
vn -0.601144 -0.669231 -0.436756
vn -0.706687 -0.669231 -0.229616
vn -0.823584 -0.500101 -0.267598
vn -0.700582 -0.500101 -0.509002
vn -0.706687 -0.669231 -0.229616
vn -0.743055 -0.669231 -0.000000
vn -0.865967 -0.500101 -0.000000
vn -0.823584 -0.500101 -0.267598
vn -0.743055 -0.669231 -0.000000
vn -0.706687 -0.669231 0.229617
vn -0.823584 -0.500101 0.267599
vn -0.865967 -0.500101 -0.000000
vn -0.706687 -0.669231 0.229617
vn -0.601144 -0.669231 0.436757
vn -0.700582 -0.500101 0.509003
vn -0.823584 -0.500101 0.267599
vn -0.601144 -0.669231 0.436757
vn -0.436757 -0.669231 0.601144
vn -0.509003 -0.500101 0.700582
vn -0.700582 -0.500101 0.509003
vn -0.436757 -0.669231 0.601144
vn -0.229617 -0.669231 0.706687
vn -0.267599 -0.500101 0.823584
vn -0.509003 -0.500101 0.700582
vn -0.229617 -0.669231 0.706687
vn 0.000000 -0.669231 0.743055
vn 0.000000 -0.500101 0.865967
vn -0.267599 -0.500101 0.823584
vn 0.000000 -0.669231 0.743055
vn 0.229617 -0.669231 0.706687
vn 0.267599 -0.500101 0.823584
vn 0.000000 -0.500101 0.865967
vn 0.229617 -0.669231 0.706687
vn 0.436757 -0.669231 0.601144
vn 0.509003 -0.500101 0.700582
vn 0.267599 -0.500101 0.823584
vn 0.436757 -0.669231 0.601144
vn 0.601144 -0.669231 0.436757
vn 0.700582 -0.500101 0.509003
vn 0.509003 -0.500101 0.700582
vn 0.601144 -0.669231 0.436757
vn 0.706687 -0.669231 0.229617
vn 0.823584 -0.500101 0.267599
vn 0.700582 -0.500101 0.509003
vn 0.706687 -0.669231 0.229617
vn 0.743055 -0.669231 0.000001
vn 0.865967 -0.500101 0.000001
vn 0.823584 -0.500101 0.267599
vn 0.743055 -0.669231 0.000001
vn 0.706687 -0.669231 -0.229616
vn 0.823584 -0.500101 -0.267598
vn 0.865967 -0.500101 0.000001
vn 0.823584 -0.500101 -0.267598
vn 0.700582 -0.500101 -0.509003
vn 0.769401 -0.309092 -0.559003
vn 0.904486 -0.309092 -0.293884
vn 0.700582 -0.500101 -0.509003
vn 0.509003 -0.500101 -0.700582
vn 0.559003 -0.309092 -0.769401
vn 0.769401 -0.309092 -0.559003
vn 0.509003 -0.500101 -0.700582
vn 0.267598 -0.500101 -0.823584
vn 0.293885 -0.309092 -0.904485
vn 0.559003 -0.309092 -0.769401
vn 0.267598 -0.500101 -0.823584
vn -0.000000 -0.500101 -0.865967
vn -0.000000 -0.309092 -0.951032
vn 0.293885 -0.309092 -0.904485
vn -0.000000 -0.500101 -0.865967
vn -0.267599 -0.500101 -0.823584
vn -0.293885 -0.309092 -0.904485
vn -0.000000 -0.309092 -0.951032
vn -0.267599 -0.500101 -0.823584
vn -0.509003 -0.500101 -0.700582
vn -0.559003 -0.309092 -0.769401
vn -0.293885 -0.309092 -0.904485
vn -0.509003 -0.500101 -0.700582
vn -0.700582 -0.500101 -0.509002
vn -0.769401 -0.309092 -0.559003
vn -0.559003 -0.309092 -0.769401
vn -0.700582 -0.500101 -0.509002
vn -0.823584 -0.500101 -0.267598
vn -0.904485 -0.309092 -0.293885
vn -0.769401 -0.309092 -0.559003
vn -0.823584 -0.500101 -0.267598
vn -0.865967 -0.500101 -0.000000
vn -0.951032 -0.309092 -0.000000
vn -0.904485 -0.309092 -0.293885
vn -0.865967 -0.500101 -0.000000
vn -0.823584 -0.500101 0.267599
vn -0.904485 -0.309092 0.293885
vn -0.951032 -0.309092 -0.000000
vn -0.823584 -0.500101 0.267599
vn -0.700582 -0.500101 0.509003
vn -0.769401 -0.309092 0.559003
vn -0.904485 -0.309092 0.293885
vn -0.700582 -0.500101 0.509003
vn -0.509003 -0.500101 0.700582
vn -0.559003 -0.309092 0.769401
vn -0.769401 -0.309092 0.559003
vn -0.509003 -0.500101 0.700582
vn -0.267599 -0.500101 0.823584
vn -0.293885 -0.309092 0.904485
vn -0.559003 -0.309092 0.769401
vn -0.267599 -0.500101 0.823584
vn 0.000000 -0.500101 0.865967
vn 0.000000 -0.309092 0.951032
vn -0.293885 -0.309092 0.904485
vn 0.000000 -0.500101 0.865967
vn 0.267599 -0.500101 0.823584
vn 0.293885 -0.309092 0.904485
vn 0.000000 -0.309092 0.951032
vn 0.267599 -0.500101 0.823584
vn 0.509003 -0.500101 0.700582
vn 0.559003 -0.309092 0.769401
vn 0.293885 -0.309092 0.904485
vn 0.509003 -0.500101 0.700582
vn 0.700582 -0.500101 0.509003
vn 0.769401 -0.309092 0.559003
vn 0.559003 -0.309092 0.769401
vn 0.700582 -0.500101 0.509003
vn 0.823584 -0.500101 0.267599
vn 0.904485 -0.309092 0.293885
vn 0.769401 -0.309092 0.559003
vn 0.823584 -0.500101 0.267599
vn 0.865967 -0.500101 0.000001
vn 0.951032 -0.309092 0.000001
vn 0.904485 -0.309092 0.293885
vn 0.865967 -0.500101 0.000001
vn 0.823584 -0.500101 -0.267598
vn 0.904486 -0.309092 -0.293884
vn 0.951032 -0.309092 0.000001
vn 0.904486 -0.309092 -0.293884
vn 0.769401 -0.309092 -0.559003
vn 0.804583 -0.104556 -0.584564
vn 0.945844 -0.104556 -0.307322
vn 0.769401 -0.309092 -0.559003
vn 0.559003 -0.309092 -0.769401
vn 0.584563 -0.104556 -0.804583
vn 0.804583 -0.104556 -0.584564
vn 0.559003 -0.309092 -0.769401
vn 0.293885 -0.309092 -0.904485
vn 0.307323 -0.104556 -0.945844
vn 0.584563 -0.104556 -0.804583
vn 0.293885 -0.309092 -0.904485
vn -0.000000 -0.309092 -0.951032
vn -0.000000 -0.104556 -0.994519
vn 0.307323 -0.104556 -0.945844
vn -0.000000 -0.309092 -0.951032
vn -0.293885 -0.309092 -0.904485
vn -0.307323 -0.104556 -0.945844
vn -0.000000 -0.104556 -0.994519
vn -0.293885 -0.309092 -0.904485
vn -0.559003 -0.309092 -0.769401
vn -0.584564 -0.104556 -0.804583
vn -0.307323 -0.104556 -0.945844
vn -0.559003 -0.309092 -0.769401
vn -0.769401 -0.309092 -0.559003
vn -0.804583 -0.104556 -0.584563
vn -0.584564 -0.104556 -0.804583
vn -0.769401 -0.309092 -0.559003
vn -0.904485 -0.309092 -0.293885
vn -0.945844 -0.104556 -0.307323
vn -0.804583 -0.104556 -0.584563
vn -0.904485 -0.309092 -0.293885
vn -0.951032 -0.309092 -0.000000
vn -0.994519 -0.104556 -0.000000
vn -0.945844 -0.104556 -0.307323
vn -0.951032 -0.309092 -0.000000
vn -0.904485 -0.309092 0.293885
vn -0.945844 -0.104556 0.307323
vn -0.994519 -0.104556 -0.000000
vn -0.904485 -0.309092 0.293885
vn -0.769401 -0.309092 0.559003
vn -0.804583 -0.104556 0.584564
vn -0.945844 -0.104556 0.307323
vn -0.769401 -0.309092 0.559003
vn -0.559003 -0.309092 0.769401
vn -0.584563 -0.104556 0.804583
vn -0.804583 -0.104556 0.584564
vn -0.559003 -0.309092 0.769401
vn -0.293885 -0.309092 0.904485
vn -0.307323 -0.104556 0.945844
vn -0.584563 -0.104556 0.804583
vn -0.293885 -0.309092 0.904485
vn 0.000000 -0.309092 0.951032
vn 0.000000 -0.104556 0.994519
vn -0.307323 -0.104556 0.945844
vn 0.000000 -0.309092 0.951032
vn 0.293885 -0.309092 0.904485
vn 0.307323 -0.104556 0.945844
vn 0.000000 -0.104556 0.994519
vn 0.293885 -0.309092 0.904485
vn 0.559003 -0.309092 0.769401
vn 0.584563 -0.104556 0.804583
vn 0.307323 -0.104556 0.945844
vn 0.559003 -0.309092 0.769401
vn 0.769401 -0.309092 0.559003
vn 0.804583 -0.104556 0.584564
vn 0.584563 -0.104556 0.804583
vn 0.769401 -0.309092 0.559003
vn 0.904485 -0.309092 0.293885
vn 0.945844 -0.104556 0.307323
vn 0.804583 -0.104556 0.584564
vn 0.904485 -0.309092 0.293885
vn 0.951032 -0.309092 0.000001
vn 0.994519 -0.104556 0.000001
vn 0.945844 -0.104556 0.307323
vn 0.951032 -0.309092 0.000001
vn 0.904486 -0.309092 -0.293884
vn 0.945844 -0.104556 -0.307322
vn 0.994519 -0.104556 0.000001
vn 0.945844 -0.104556 -0.307322
vn 0.804583 -0.104556 -0.584564
vn 0.804583 0.104556 -0.584564
vn 0.945844 0.104556 -0.307322
vn 0.804583 -0.104556 -0.584564
vn 0.584563 -0.104556 -0.804583
vn 0.584563 0.104556 -0.804583
vn 0.804583 0.104556 -0.584564
vn 0.584563 -0.104556 -0.804583
vn 0.307323 -0.104556 -0.945844
vn 0.307323 0.104556 -0.945844
vn 0.584563 0.104556 -0.804583
vn 0.307323 -0.104556 -0.945844
vn -0.000000 -0.104556 -0.994519
vn -0.000000 0.104556 -0.994519
vn 0.307323 0.104556 -0.945844
vn -0.000000 -0.104556 -0.994519
vn -0.307323 -0.104556 -0.945844
vn -0.307323 0.104556 -0.945844
vn -0.000000 0.104556 -0.994519
vn -0.307323 -0.104556 -0.945844
vn -0.584564 -0.104556 -0.804583
vn -0.584564 0.104556 -0.804583
vn -0.307323 0.104556 -0.945844
vn -0.584564 -0.104556 -0.804583
vn -0.804583 -0.104556 -0.584563
vn -0.804583 0.104556 -0.584563
vn -0.584564 0.104556 -0.804583
vn -0.804583 -0.104556 -0.584563
vn -0.945844 -0.104556 -0.307323
vn -0.945844 0.104556 -0.307323
vn -0.804583 0.104556 -0.584563
vn -0.945844 -0.104556 -0.307323
vn -0.994519 -0.104556 -0.000000
vn -0.994519 0.104556 -0.000000
vn -0.945844 0.104556 -0.307323
vn -0.994519 -0.104556 -0.000000
vn -0.945844 -0.104556 0.307323
vn -0.945844 0.104556 0.307323
vn -0.994519 0.104556 -0.000000
vn -0.945844 -0.104556 0.307323
vn -0.804583 -0.104556 0.584564
vn -0.804583 0.104556 0.584564
vn -0.945844 0.104556 0.307323
vn -0.804583 -0.104556 0.584564
vn -0.584563 -0.104556 0.804583
vn -0.584563 0.104556 0.804583
vn -0.804583 0.104556 0.584564
vn -0.584563 -0.104556 0.804583
vn -0.307323 -0.104556 0.945844
vn -0.307323 0.104556 0.945844
vn -0.584563 0.104556 0.804583
vn -0.307323 -0.104556 0.945844
vn 0.000000 -0.104556 0.994519
vn 0.000000 0.104556 0.994519
vn -0.307323 0.104556 0.945844
vn 0.000000 -0.104556 0.994519
vn 0.307323 -0.104556 0.945844
vn 0.307323 0.104556 0.945844
vn 0.000000 0.104556 0.994519
vn 0.307323 -0.104556 0.945844
vn 0.584563 -0.104556 0.804583
vn 0.584564 0.104556 0.804583
vn 0.307323 0.104556 0.945844
vn 0.584563 -0.104556 0.804583
vn 0.804583 -0.104556 0.584564
vn 0.804583 0.104556 0.584564
vn 0.584564 0.104556 0.804583
vn 0.804583 -0.104556 0.584564
vn 0.945844 -0.104556 0.307323
vn 0.945844 0.104556 0.307323
vn 0.804583 0.104556 0.584564
vn 0.945844 -0.104556 0.307323
vn 0.994519 -0.104556 0.000001
vn 0.994519 0.104556 0.000001
vn 0.945844 0.104556 0.307323
vn 0.994519 -0.104556 0.000001
vn 0.945844 -0.104556 -0.307322
vn 0.945844 0.104556 -0.307322
vn 0.994519 0.104556 0.000001
vn 0.945844 0.104556 -0.307322
vn 0.804583 0.104556 -0.584564
vn 0.769401 0.309092 -0.559003
vn 0.904486 0.309092 -0.293884
vn 0.804583 0.104556 -0.584564
vn 0.584563 0.104556 -0.804583
vn 0.559003 0.309092 -0.769401
vn 0.769401 0.309092 -0.559003
vn 0.584563 0.104556 -0.804583
vn 0.307323 0.104556 -0.945844
vn 0.293885 0.309092 -0.904485
vn 0.559003 0.309092 -0.769401
vn 0.307323 0.104556 -0.945844
vn -0.000000 0.104556 -0.994519
vn -0.000000 0.309092 -0.951032
vn 0.293885 0.309092 -0.904485
vn -0.000000 0.104556 -0.994519
vn -0.307323 0.104556 -0.945844
vn -0.293885 0.309092 -0.904485
vn -0.000000 0.309092 -0.951032
vn -0.307323 0.104556 -0.945844
vn -0.584564 0.104556 -0.804583
vn -0.559003 0.309092 -0.769401
vn -0.293885 0.309092 -0.904485
vn -0.584564 0.104556 -0.804583
vn -0.804583 0.104556 -0.584563
vn -0.769401 0.309092 -0.559003
vn -0.559003 0.309092 -0.769401
vn -0.804583 0.104556 -0.584563
vn -0.945844 0.104556 -0.307323
vn -0.904485 0.309092 -0.293885
vn -0.769401 0.309092 -0.559003
vn -0.945844 0.104556 -0.307323
vn -0.994519 0.104556 -0.000000
vn -0.951032 0.309092 0.000000
vn -0.904485 0.309092 -0.293885
vn -0.994519 0.104556 -0.000000
vn -0.945844 0.104556 0.307323
vn -0.904485 0.309092 0.293885
vn -0.951032 0.309092 0.000000
vn -0.945844 0.104556 0.307323
vn -0.804583 0.104556 0.584564
vn -0.769401 0.309092 0.559003
vn -0.904485 0.309092 0.293885
vn -0.804583 0.104556 0.584564
vn -0.584563 0.104556 0.804583
vn -0.559003 0.309092 0.769401
vn -0.769401 0.309092 0.559003
vn -0.584563 0.104556 0.804583
vn -0.307323 0.104556 0.945844
vn -0.293885 0.309092 0.904485
vn -0.559003 0.309092 0.769401
vn -0.307323 0.104556 0.945844
vn 0.000000 0.104556 0.994519
vn 0.000000 0.309092 0.951032
vn -0.293885 0.309092 0.904485
vn 0.000000 0.104556 0.994519
vn 0.307323 0.104556 0.945844
vn 0.293885 0.309092 0.904485
vn 0.000000 0.309092 0.951032
vn 0.307323 0.104556 0.945844
vn 0.584564 0.104556 0.804583
vn 0.559003 0.309092 0.769401
vn 0.293885 0.309092 0.904485
vn 0.584564 0.104556 0.804583
vn 0.804583 0.104556 0.584564
vn 0.769401 0.309092 0.559003
vn 0.559003 0.309092 0.769401
vn 0.804583 0.104556 0.584564
vn 0.945844 0.104556 0.307323
vn 0.904485 0.309092 0.293885
vn 0.769401 0.309092 0.559003
vn 0.945844 0.104556 0.307323
vn 0.994519 0.104556 0.000001
vn 0.951032 0.309092 0.000001
vn 0.904485 0.309092 0.293885
vn 0.994519 0.104556 0.000001
vn 0.945844 0.104556 -0.307322
vn 0.904486 0.309092 -0.293884
vn 0.951032 0.309092 0.000001
vn 0.904486 0.309092 -0.293884
vn 0.769401 0.309092 -0.559003
vn 0.700582 0.500101 -0.509003
vn 0.823584 0.500101 -0.267598
vn 0.769401 0.309092 -0.559003
vn 0.559003 0.309092 -0.769401
vn 0.509003 0.500101 -0.700582
vn 0.700582 0.500101 -0.509003
vn 0.559003 0.309092 -0.769401
vn 0.293885 0.309092 -0.904485
vn 0.267598 0.500101 -0.823584
vn 0.509003 0.500101 -0.700582
vn 0.293885 0.309092 -0.904485
vn -0.000000 0.309092 -0.951032
vn 0.000000 0.500101 -0.865967
vn 0.267598 0.500101 -0.823584
vn -0.000000 0.309092 -0.951032
vn -0.293885 0.309092 -0.904485
vn -0.267599 0.500101 -0.823584
vn 0.000000 0.500101 -0.865967
vn -0.293885 0.309092 -0.904485
vn -0.559003 0.309092 -0.769401
vn -0.509003 0.500101 -0.700582
vn -0.267599 0.500101 -0.823584
vn -0.559003 0.309092 -0.769401
vn -0.769401 0.309092 -0.559003
vn -0.700582 0.500101 -0.509003
vn -0.509003 0.500101 -0.700582
vn -0.769401 0.309092 -0.559003
vn -0.904485 0.309092 -0.293885
vn -0.823584 0.500101 -0.267598
vn -0.700582 0.500101 -0.509003
vn -0.904485 0.309092 -0.293885
vn -0.951032 0.309092 0.000000
vn -0.865967 0.500101 0.000000
vn -0.823584 0.500101 -0.267598
vn -0.951032 0.309092 0.000000
vn -0.904485 0.309092 0.293885
vn -0.823584 0.500101 0.267599
vn -0.865967 0.500101 0.000000
vn -0.904485 0.309092 0.293885
vn -0.769401 0.309092 0.559003
vn -0.700582 0.500101 0.509003
vn -0.823584 0.500101 0.267599
vn -0.769401 0.309092 0.559003
vn -0.559003 0.309092 0.769401
vn -0.509003 0.500101 0.700582
vn -0.700582 0.500101 0.509003
vn -0.559003 0.309092 0.769401
vn -0.293885 0.309092 0.904485
vn -0.267599 0.500101 0.823584
vn -0.509003 0.500101 0.700582
vn -0.293885 0.309092 0.904485
vn 0.000000 0.309092 0.951032
vn 0.000000 0.500101 0.865967
vn -0.267599 0.500101 0.823584
vn 0.000000 0.309092 0.951032
vn 0.293885 0.309092 0.904485
vn 0.267599 0.500101 0.823584
vn 0.000000 0.500101 0.865967
vn 0.293885 0.309092 0.904485
vn 0.559003 0.309092 0.769401
vn 0.509003 0.500101 0.700582
vn 0.267599 0.500101 0.823584
vn 0.559003 0.309092 0.769401
vn 0.769401 0.309092 0.559003
vn 0.700582 0.500101 0.509003
vn 0.509003 0.500101 0.700582
vn 0.769401 0.309092 0.559003
vn 0.904485 0.309092 0.293885
vn 0.823584 0.500101 0.267599
vn 0.700582 0.500101 0.509003
vn 0.904485 0.309092 0.293885
vn 0.951032 0.309092 0.000001
vn 0.865967 0.500101 0.000001
vn 0.823584 0.500101 0.267599
vn 0.951032 0.309092 0.000001
vn 0.904486 0.309092 -0.293884
vn 0.823584 0.500101 -0.267598
vn 0.865967 0.500101 0.000001
vn 0.823584 0.500101 -0.267598
vn 0.700582 0.500101 -0.509003
vn 0.601144 0.669231 -0.436757
vn 0.706687 0.669231 -0.229616
vn 0.700582 0.500101 -0.509003
vn 0.509003 0.500101 -0.700582
vn 0.436757 0.669231 -0.601144
vn 0.601144 0.669231 -0.436757
vn 0.509003 0.500101 -0.700582
vn 0.267598 0.500101 -0.823584
vn 0.229616 0.669231 -0.706687
vn 0.436757 0.669231 -0.601144
vn 0.267598 0.500101 -0.823584
vn 0.000000 0.500101 -0.865967
vn -0.000000 0.669231 -0.743055
vn 0.229616 0.669231 -0.706687
vn 0.000000 0.500101 -0.865967
vn -0.267599 0.500101 -0.823584
vn -0.229617 0.669231 -0.706687
vn -0.000000 0.669231 -0.743055
vn -0.267599 0.500101 -0.823584
vn -0.509003 0.500101 -0.700582
vn -0.436757 0.669231 -0.601144
vn -0.229617 0.669231 -0.706687
vn -0.509003 0.500101 -0.700582
vn -0.700582 0.500101 -0.509003
vn -0.601144 0.669231 -0.436757
vn -0.436757 0.669231 -0.601144
vn -0.700582 0.500101 -0.509003
vn -0.823584 0.500101 -0.267598
vn -0.706687 0.669231 -0.229616
vn -0.601144 0.669231 -0.436757
vn -0.823584 0.500101 -0.267598
vn -0.865967 0.500101 0.000000
vn -0.743055 0.669231 0.000000
vn -0.706687 0.669231 -0.229616
vn -0.865967 0.500101 0.000000
vn -0.823584 0.500101 0.267599
vn -0.706687 0.669231 0.229617
vn -0.743055 0.669231 0.000000
vn -0.823584 0.500101 0.267599
vn -0.700582 0.500101 0.509003
vn -0.601144 0.669231 0.436757
vn -0.706687 0.669231 0.229617
vn -0.700582 0.500101 0.509003
vn -0.509003 0.500101 0.700582
vn -0.436757 0.669231 0.601144
vn -0.601144 0.669231 0.436757
vn -0.509003 0.500101 0.700582
vn -0.267599 0.500101 0.823584
vn -0.229617 0.669231 0.706687
vn -0.436757 0.669231 0.601144
vn -0.267599 0.500101 0.823584
vn 0.000000 0.500101 0.865967
vn 0.000000 0.669231 0.743055
vn -0.229617 0.669231 0.706687
vn 0.000000 0.500101 0.865967
vn 0.267599 0.500101 0.823584
vn 0.229617 0.669231 0.706687
vn 0.000000 0.669231 0.743055
vn 0.267599 0.500101 0.823584
vn 0.509003 0.500101 0.700582
vn 0.436757 0.669231 0.601144
vn 0.229617 0.669231 0.706687
vn 0.509003 0.500101 0.700582
vn 0.700582 0.500101 0.509003
vn 0.601144 0.669231 0.436757
vn 0.436757 0.669231 0.601144
vn 0.700582 0.500101 0.509003
vn 0.823584 0.500101 0.267599
vn 0.706687 0.669231 0.229617
vn 0.601144 0.669231 0.436757
vn 0.823584 0.500101 0.267599
vn 0.865967 0.500101 0.000001
vn 0.743055 0.669231 0.000001
vn 0.706687 0.669231 0.229617
vn 0.865967 0.500101 0.000001
vn 0.823584 0.500101 -0.267598
vn 0.706687 0.669231 -0.229616
vn 0.743055 0.669231 0.000001
vn 0.706687 0.669231 -0.229616
vn 0.601144 0.669231 -0.436757
vn 0.475443 0.809093 -0.345430
vn 0.558918 0.809093 -0.181603
vn 0.601144 0.669231 -0.436757
vn 0.436757 0.669231 -0.601144
vn 0.345430 0.809093 -0.475443
vn 0.475443 0.809093 -0.345430
vn 0.436757 0.669231 -0.601144
vn 0.229616 0.669231 -0.706687
vn 0.181603 0.809093 -0.558917
vn 0.345430 0.809093 -0.475443
vn 0.229616 0.669231 -0.706687
vn -0.000000 0.669231 -0.743055
vn -0.000000 0.809093 -0.587681
vn 0.181603 0.809093 -0.558917
vn -0.000000 0.669231 -0.743055
vn -0.229617 0.669231 -0.706687
vn -0.181603 0.809093 -0.558917
vn -0.000000 0.809093 -0.587681
vn -0.229617 0.669231 -0.706687
vn -0.436757 0.669231 -0.601144
vn -0.345430 0.809093 -0.475443
vn -0.181603 0.809093 -0.558917
vn -0.436757 0.669231 -0.601144
vn -0.601144 0.669231 -0.436757
vn -0.475444 0.809093 -0.345430
vn -0.345430 0.809093 -0.475443
vn -0.601144 0.669231 -0.436757
vn -0.706687 0.669231 -0.229616
vn -0.558917 0.809093 -0.181603
vn -0.475444 0.809093 -0.345430
vn -0.706687 0.669231 -0.229616
vn -0.743055 0.669231 0.000000
vn -0.587681 0.809093 -0.000000
vn -0.558917 0.809093 -0.181603
vn -0.743055 0.669231 0.000000
vn -0.706687 0.669231 0.229617
vn -0.558917 0.809093 0.181603
vn -0.587681 0.809093 -0.000000
vn -0.706687 0.669231 0.229617
vn -0.601144 0.669231 0.436757
vn -0.475444 0.809093 0.345430
vn -0.558917 0.809093 0.181603
vn -0.601144 0.669231 0.436757
vn -0.436757 0.669231 0.601144
vn -0.345430 0.809093 0.475444
vn -0.475444 0.809093 0.345430
vn -0.436757 0.669231 0.601144
vn -0.229617 0.669231 0.706687
vn -0.181603 0.809093 0.558918
vn -0.345430 0.809093 0.475444
vn -0.229617 0.669231 0.706687
vn 0.000000 0.669231 0.743055
vn 0.000000 0.809093 0.587681
vn -0.181603 0.809093 0.558918
vn 0.000000 0.669231 0.743055
vn 0.229617 0.669231 0.706687
vn 0.181603 0.809093 0.558918
vn 0.000000 0.809093 0.587681
vn 0.229617 0.669231 0.706687
vn 0.436757 0.669231 0.601144
vn 0.345430 0.809093 0.475444
vn 0.181603 0.809093 0.558918
vn 0.436757 0.669231 0.601144
vn 0.601144 0.669231 0.436757
vn 0.475444 0.809093 0.345430
vn 0.345430 0.809093 0.475444
vn 0.601144 0.669231 0.436757
vn 0.706687 0.669231 0.229617
vn 0.558918 0.809093 0.181603
vn 0.475444 0.809093 0.345430
vn 0.706687 0.669231 0.229617
vn 0.743055 0.669231 0.000001
vn 0.587681 0.809093 0.000001
vn 0.558918 0.809093 0.181603
vn 0.743055 0.669231 0.000001
vn 0.706687 0.669231 -0.229616
vn 0.558918 0.809093 -0.181603
vn 0.587681 0.809093 0.000001
vn 0.558918 0.809093 -0.181603
vn 0.475443 0.809093 -0.345430
vn 0.328982 0.913587 -0.239019
vn 0.386741 0.913587 -0.125659
vn 0.475443 0.809093 -0.345430
vn 0.345430 0.809093 -0.475443
vn 0.239019 0.913587 -0.328982
vn 0.328982 0.913587 -0.239019
vn 0.345430 0.809093 -0.475443
vn 0.181603 0.809093 -0.558917
vn 0.125660 0.913587 -0.386741
vn 0.239019 0.913587 -0.328982
vn 0.181603 0.809093 -0.558917
vn -0.000000 0.809093 -0.587681
vn -0.000000 0.913587 -0.406644
vn 0.125660 0.913587 -0.386741
vn -0.000000 0.809093 -0.587681
vn -0.181603 0.809093 -0.558917
vn -0.125660 0.913587 -0.386741
vn -0.000000 0.913587 -0.406644
vn -0.181603 0.809093 -0.558917
vn -0.345430 0.809093 -0.475443
vn -0.239019 0.913587 -0.328982
vn -0.125660 0.913587 -0.386741
vn -0.345430 0.809093 -0.475443
vn -0.475444 0.809093 -0.345430
vn -0.328982 0.913587 -0.239019
vn -0.239019 0.913587 -0.328982
vn -0.475444 0.809093 -0.345430
vn -0.558917 0.809093 -0.181603
vn -0.386741 0.913587 -0.125660
vn -0.328982 0.913587 -0.239019
vn -0.558917 0.809093 -0.181603
vn -0.587681 0.809093 -0.000000
vn -0.406644 0.913587 -0.000000
vn -0.386741 0.913587 -0.125660
vn -0.587681 0.809093 -0.000000
vn -0.558917 0.809093 0.181603
vn -0.386741 0.913587 0.125660
vn -0.406644 0.913587 -0.000000
vn -0.558917 0.809093 0.181603
vn -0.475444 0.809093 0.345430
vn -0.328982 0.913587 0.239019
vn -0.386741 0.913587 0.125660
vn -0.475444 0.809093 0.345430
vn -0.345430 0.809093 0.475444
vn -0.239019 0.913587 0.328982
vn -0.328982 0.913587 0.239019
vn -0.345430 0.809093 0.475444
vn -0.181603 0.809093 0.558918
vn -0.125660 0.913587 0.386742
vn -0.239019 0.913587 0.328982
vn -0.181603 0.809093 0.558918
vn 0.000000 0.809093 0.587681
vn 0.000000 0.913587 0.406644
vn -0.125660 0.913587 0.386742
vn 0.000000 0.809093 0.587681
vn 0.181603 0.809093 0.558918
vn 0.125660 0.913587 0.386741
vn 0.000000 0.913587 0.406644
vn 0.181603 0.809093 0.558918
vn 0.345430 0.809093 0.475444
vn 0.239019 0.913587 0.328982
vn 0.125660 0.913587 0.386741
vn 0.345430 0.809093 0.475444
vn 0.475444 0.809093 0.345430
vn 0.328982 0.913587 0.239019
vn 0.239019 0.913587 0.328982
vn 0.475444 0.809093 0.345430
vn 0.558918 0.809093 0.181603
vn 0.386741 0.913587 0.125660
vn 0.328982 0.913587 0.239019
vn 0.558918 0.809093 0.181603
vn 0.587681 0.809093 0.000001
vn 0.406644 0.913587 0.000001
vn 0.386741 0.913587 0.125660
vn 0.587681 0.809093 0.000001
vn 0.558918 0.809093 -0.181603
vn 0.386741 0.913587 -0.125659
vn 0.406644 0.913587 0.000001
vn 0.386741 0.913587 -0.125659
vn 0.328982 0.913587 -0.239019
vn 0.168160 0.978159 -0.122176
vn 0.197684 0.978159 -0.064232
vn 0.328982 0.913587 -0.239019
vn 0.239019 0.913587 -0.328982
vn 0.122175 0.978159 -0.168160
vn 0.168160 0.978159 -0.122176
vn 0.239019 0.913587 -0.328982
vn 0.125660 0.913587 -0.386741
vn 0.064231 0.978159 -0.197684
vn 0.122175 0.978159 -0.168160
vn 0.125660 0.913587 -0.386741
vn -0.000000 0.913587 -0.406644
vn -0.000000 0.978159 -0.207857
vn 0.064231 0.978159 -0.197684
vn -0.000000 0.913587 -0.406644
vn -0.125660 0.913587 -0.386741
vn -0.064231 0.978159 -0.197684
vn -0.000000 0.978159 -0.207857
vn -0.125660 0.913587 -0.386741
vn -0.239019 0.913587 -0.328982
vn -0.122175 0.978159 -0.168160
vn -0.064231 0.978159 -0.197684
vn -0.239019 0.913587 -0.328982
vn -0.328982 0.913587 -0.239019
vn -0.168160 0.978159 -0.122175
vn -0.122175 0.978159 -0.168160
vn -0.328982 0.913587 -0.239019
vn -0.386741 0.913587 -0.125660
vn -0.197684 0.978159 -0.064231
vn -0.168160 0.978159 -0.122175
vn -0.386741 0.913587 -0.125660
vn -0.406644 0.913587 -0.000000
vn -0.207857 0.978159 0.000000
vn -0.197684 0.978159 -0.064231
vn -0.406644 0.913587 -0.000000
vn -0.386741 0.913587 0.125660
vn -0.197684 0.978159 0.064232
vn -0.207857 0.978159 0.000000
vn -0.386741 0.913587 0.125660
vn -0.328982 0.913587 0.239019
vn -0.168160 0.978159 0.122175
vn -0.197684 0.978159 0.064232
vn -0.328982 0.913587 0.239019
vn -0.239019 0.913587 0.328982
vn -0.122175 0.978159 0.168160
vn -0.168160 0.978159 0.122175
vn -0.239019 0.913587 0.328982
vn -0.125660 0.913587 0.386742
vn -0.064231 0.978159 0.197684
vn -0.122175 0.978159 0.168160
vn -0.125660 0.913587 0.386742
vn 0.000000 0.913587 0.406644
vn 0.000000 0.978159 0.207858
vn -0.064231 0.978159 0.197684
vn 0.000000 0.913587 0.406644
vn 0.125660 0.913587 0.386741
vn 0.064231 0.978159 0.197684
vn 0.000000 0.978159 0.207858
vn 0.125660 0.913587 0.386741
vn 0.239019 0.913587 0.328982
vn 0.122175 0.978159 0.168160
vn 0.064231 0.978159 0.197684
vn 0.239019 0.913587 0.328982
vn 0.328982 0.913587 0.239019
vn 0.168160 0.978159 0.122175
vn 0.122175 0.978159 0.168160
vn 0.328982 0.913587 0.239019
vn 0.386741 0.913587 0.125660
vn 0.197684 0.978159 0.064232
vn 0.168160 0.978159 0.122175
vn 0.386741 0.913587 0.125660
vn 0.406644 0.913587 0.000001
vn 0.207857 0.978159 0.000000
vn 0.197684 0.978159 0.064232
vn 0.406644 0.913587 0.000001
vn 0.386741 0.913587 -0.125659
vn 0.197684 0.978159 -0.064232
vn 0.207857 0.978159 0.000000
vn 0.168160 -0.978159 -0.122175
vn 0.197684 -0.978159 -0.064232
vn 0.000000 -1.000000 0.000000
vn 0.122175 -0.978159 -0.168160
vn 0.168160 -0.978159 -0.122175
vn 0.000000 -1.000000 0.000000
vn 0.064231 -0.978159 -0.197684
vn 0.122175 -0.978159 -0.168160
vn 0.000000 -1.000000 0.000000
vn -0.000000 -0.978159 -0.207857
vn 0.064231 -0.978159 -0.197684
vn 0.000000 -1.000000 0.000000
vn -0.064231 -0.978159 -0.197684
vn -0.000000 -0.978159 -0.207857
vn 0.000000 -1.000000 0.000000
vn -0.122175 -0.978159 -0.168159
vn -0.064231 -0.978159 -0.197684
vn 0.000000 -1.000000 0.000000
vn -0.168160 -0.978159 -0.122175
vn -0.122175 -0.978159 -0.168159
vn 0.000000 -1.000000 0.000000
vn -0.197684 -0.978159 -0.064231
vn -0.168160 -0.978159 -0.122175
vn 0.000000 -1.000000 0.000000
vn -0.207857 -0.978159 -0.000000
vn -0.197684 -0.978159 -0.064231
vn 0.000000 -1.000000 0.000000
vn -0.197684 -0.978159 0.064232
vn -0.207857 -0.978159 -0.000000
vn 0.000000 -1.000000 0.000000
vn -0.168160 -0.978159 0.122175
vn -0.197684 -0.978159 0.064232
vn 0.000000 -1.000000 0.000000
vn -0.122175 -0.978159 0.168160
vn -0.168160 -0.978159 0.122175
vn 0.000000 -1.000000 0.000000
vn -0.064231 -0.978159 0.197684
vn -0.122175 -0.978159 0.168160
vn 0.000000 -1.000000 0.000000
vn 0.000000 -0.978159 0.207858
vn -0.064231 -0.978159 0.197684
vn 0.000000 -1.000000 0.000000
vn 0.064231 -0.978159 0.197684
vn 0.000000 -0.978159 0.207858
vn 0.000000 -1.000000 0.000000
vn 0.122175 -0.978159 0.168160
vn 0.064231 -0.978159 0.197684
vn 0.000000 -1.000000 0.000000
vn 0.168160 -0.978159 0.122176
vn 0.122175 -0.978159 0.168160
vn 0.000000 -1.000000 0.000000
vn 0.197684 -0.978159 0.064232
vn 0.168160 -0.978159 0.122176
vn 0.000000 -1.000000 0.000000
vn 0.207857 -0.978159 0.000000
vn 0.197684 -0.978159 0.064232
vn 0.000000 -1.000000 0.000000
vn 0.197684 -0.978159 -0.064232
vn 0.207857 -0.978159 0.000000
vn 0.000000 -1.000000 0.000000
vn 0.197684 0.978159 -0.064232
vn 0.168160 0.978159 -0.122176
vn -0.000000 1.000000 -0.000000
vn 0.168160 0.978159 -0.122176
vn 0.122175 0.978159 -0.168160
vn -0.000000 1.000000 -0.000000
vn 0.122175 0.978159 -0.168160
vn 0.064231 0.978159 -0.197684
vn -0.000000 1.000000 -0.000000
vn 0.064231 0.978159 -0.197684
vn -0.000000 0.978159 -0.207857
vn -0.000000 1.000000 -0.000000
vn -0.000000 0.978159 -0.207857
vn -0.064231 0.978159 -0.197684
vn -0.000000 1.000000 -0.000000
vn -0.064231 0.978159 -0.197684
vn -0.122175 0.978159 -0.168160
vn -0.000000 1.000000 -0.000000
vn -0.122175 0.978159 -0.168160
vn -0.168160 0.978159 -0.122175
vn -0.000000 1.000000 -0.000000
vn -0.168160 0.978159 -0.122175
vn -0.197684 0.978159 -0.064231
vn -0.000000 1.000000 -0.000000
vn -0.197684 0.978159 -0.064231
vn -0.207857 0.978159 0.000000
vn -0.000000 1.000000 -0.000000
vn -0.207857 0.978159 0.000000
vn -0.197684 0.978159 0.064232
vn -0.000000 1.000000 -0.000000
vn -0.197684 0.978159 0.064232
vn -0.168160 0.978159 0.122175
vn -0.000000 1.000000 -0.000000
vn -0.168160 0.978159 0.122175
vn -0.122175 0.978159 0.168160
vn -0.000000 1.000000 -0.000000
vn -0.122175 0.978159 0.168160
vn -0.064231 0.978159 0.197684
vn -0.000000 1.000000 -0.000000
vn -0.064231 0.978159 0.197684
vn 0.000000 0.978159 0.207858
vn -0.000000 1.000000 -0.000000
vn 0.000000 0.978159 0.207858
vn 0.064231 0.978159 0.197684
vn -0.000000 1.000000 -0.000000
vn 0.064231 0.978159 0.197684
vn 0.122175 0.978159 0.168160
vn -0.000000 1.000000 -0.000000
vn 0.122175 0.978159 0.168160
vn 0.168160 0.978159 0.122175
vn -0.000000 1.000000 -0.000000
vn 0.168160 0.978159 0.122175
vn 0.197684 0.978159 0.064232
vn -0.000000 1.000000 -0.000000
vn 0.197684 0.978159 0.064232
vn 0.207857 0.978159 0.000000
vn -0.000000 1.000000 -0.000000
vn 0.207857 0.978159 0.000000
vn 0.197684 0.978159 -0.064232
vn -0.000000 1.000000 -0.000000
usemtl moonG
f 1/1/1 2/2/2 22/23/3 21/22/4
f 2/2/5 3/3/6 23/24/7 22/23/8
f 3/3/9 4/4/10 24/25/11 23/24/12
f 4/4/13 5/5/14 25/26/15 24/25/16
f 5/5/17 6/6/18 26/27/19 25/26/20
f 6/6/21 7/7/22 27/28/23 26/27/24
f 7/7/25 8/8/26 28/29/27 27/28/28
f 8/8/29 9/9/30 29/30/31 28/29/32
f 9/9/33 10/10/34 30/31/35 29/30/36
f 10/10/37 11/11/38 31/32/39 30/31/40
f 11/11/41 12/12/42 32/33/43 31/32/44
f 12/12/45 13/13/46 33/34/47 32/33/48
f 13/13/49 14/14/50 34/35/51 33/34/52
f 14/14/53 15/15/54 35/36/55 34/35/56
f 15/15/57 16/16/58 36/37/59 35/36/60
f 16/16/61 17/17/62 37/38/63 36/37/64
f 17/17/65 18/18/66 38/39/67 37/38/68
f 18/18/69 19/19/70 39/40/71 38/39/72
f 19/19/73 20/20/74 40/41/75 39/40/76
f 20/20/77 1/21/78 21/42/79 40/41/80
f 21/22/81 22/23/82 42/44/83 41/43/84
f 22/23/85 23/24/86 43/45/87 42/44/88
f 23/24/89 24/25/90 44/46/91 43/45/92
f 24/25/93 25/26/94 45/47/95 44/46/96
f 25/26/97 26/27/98 46/48/99 45/47/100
f 26/27/101 27/28/102 47/49/103 46/48/104
f 27/28/105 28/29/106 48/50/107 47/49/108
f 28/29/109 29/30/110 49/51/111 48/50/112
f 29/30/113 30/31/114 50/52/115 49/51/116
f 30/31/117 31/32/118 51/53/119 50/52/120
f 31/32/121 32/33/122 52/54/123 51/53/124
f 32/33/125 33/34/126 53/55/127 52/54/128
f 33/34/129 34/35/130 54/56/131 53/55/132
f 34/35/133 35/36/134 55/57/135 54/56/136
f 35/36/137 36/37/138 56/58/139 55/57/140
f 36/37/141 37/38/142 57/59/143 56/58/144
f 37/38/145 38/39/146 58/60/147 57/59/148
f 38/39/149 39/40/150 59/61/151 58/60/152
f 39/40/153 40/41/154 60/62/155 59/61/156
f 40/41/157 21/42/158 41/63/159 60/62/160
f 41/43/161 42/44/162 62/65/163 61/64/164
f 42/44/165 43/45/166 63/66/167 62/65/168
f 43/45/169 44/46/170 64/67/171 63/66/172
f 44/46/173 45/47/174 65/68/175 64/67/176
f 45/47/177 46/48/178 66/69/179 65/68/180
f 46/48/181 47/49/182 67/70/183 66/69/184
f 47/49/185 48/50/186 68/71/187 67/70/188
f 48/50/189 49/51/190 69/72/191 68/71/192
f 49/51/193 50/52/194 70/73/195 69/72/196
f 50/52/197 51/53/198 71/74/199 70/73/200
f 51/53/201 52/54/202 72/75/203 71/74/204
f 52/54/205 53/55/206 73/76/207 72/75/208
f 53/55/209 54/56/210 74/77/211 73/76/212
f 54/56/213 55/57/214 75/78/215 74/77/216
f 55/57/217 56/58/218 76/79/219 75/78/220
f 56/58/221 57/59/222 77/80/223 76/79/224
f 57/59/225 58/60/226 78/81/227 77/80/228
f 58/60/229 59/61/230 79/82/231 78/81/232
f 59/61/233 60/62/234 80/83/235 79/82/236
f 60/62/237 41/63/238 61/84/239 80/83/240
f 61/64/241 62/65/242 82/86/243 81/85/244
f 62/65/245 63/66/246 83/87/247 82/86/248
f 63/66/249 64/67/250 84/88/251 83/87/252
f 64/67/253 65/68/254 85/89/255 84/88/256
f 65/68/257 66/69/258 86/90/259 85/89/260
f 66/69/261 67/70/262 87/91/263 86/90/264
f 67/70/265 68/71/266 88/92/267 87/91/268
f 68/71/269 69/72/270 89/93/271 88/92/272
f 69/72/273 70/73/274 90/94/275 89/93/276
f 70/73/277 71/74/278 91/95/279 90/94/280
f 71/74/281 72/75/282 92/96/283 91/95/284
f 72/75/285 73/76/286 93/97/287 92/96/288
f 73/76/289 74/77/290 94/98/291 93/97/292
f 74/77/293 75/78/294 95/99/295 94/98/296
f 75/78/297 76/79/298 96/100/299 95/99/300
f 76/79/301 77/80/302 97/101/303 96/100/304
f 77/80/305 78/81/306 98/102/307 97/101/308
f 78/81/309 79/82/310 99/103/311 98/102/312
f 79/82/313 80/83/314 100/104/315 99/103/316
f 80/83/317 61/84/318 81/105/319 100/104/320
f 81/85/321 82/86/322 102/107/323 101/106/324
f 82/86/325 83/87/326 103/108/327 102/107/328
f 83/87/329 84/88/330 104/109/331 103/108/332
f 84/88/333 85/89/334 105/110/335 104/109/336
f 85/89/337 86/90/338 106/111/339 105/110/340
f 86/90/341 87/91/342 107/112/343 106/111/344
f 87/91/345 88/92/346 108/113/347 107/112/348
f 88/92/349 89/93/350 109/114/351 108/113/352
f 89/93/353 90/94/354 110/115/355 109/114/356
f 90/94/357 91/95/358 111/116/359 110/115/360
f 91/95/361 92/96/362 112/117/363 111/116/364
f 92/96/365 93/97/366 113/118/367 112/117/368
f 93/97/369 94/98/370 114/119/371 113/118/372
f 94/98/373 95/99/374 115/120/375 114/119/376
f 95/99/377 96/100/378 116/121/379 115/120/380
f 96/100/381 97/101/382 117/122/383 116/121/384
f 97/101/385 98/102/386 118/123/387 117/122/388
f 98/102/389 99/103/390 119/124/391 118/123/392
f 99/103/393 100/104/394 120/125/395 119/124/396
f 100/104/397 81/105/398 101/126/399 120/125/400
f 101/106/401 102/107/402 122/128/403 121/127/404
f 102/107/405 103/108/406 123/129/407 122/128/408
f 103/108/409 104/109/410 124/130/411 123/129/412
f 104/109/413 105/110/414 125/131/415 124/130/416
f 105/110/417 106/111/418 126/132/419 125/131/420
f 106/111/421 107/112/422 127/133/423 126/132/424
f 107/112/425 108/113/426 128/134/427 127/133/428
f 108/113/429 109/114/430 129/135/431 128/134/432
f 109/114/433 110/115/434 130/136/435 129/135/436
f 110/115/437 111/116/438 131/137/439 130/136/440
f 111/116/441 112/117/442 132/138/443 131/137/444
f 112/117/445 113/118/446 133/139/447 132/138/448
f 113/118/449 114/119/450 134/140/451 133/139/452
f 114/119/453 115/120/454 135/141/455 134/140/456
f 115/120/457 116/121/458 136/142/459 135/141/460
f 116/121/461 117/122/462 137/143/463 136/142/464
f 117/122/465 118/123/466 138/144/467 137/143/468
f 118/123/469 119/124/470 139/145/471 138/144/472
f 119/124/473 120/125/474 140/146/475 139/145/476
f 120/125/477 101/126/478 121/147/479 140/146/480
f 121/127/481 122/128/482 142/149/483 141/148/484
f 122/128/485 123/129/486 143/150/487 142/149/488
f 123/129/489 124/130/490 144/151/491 143/150/492
f 124/130/493 125/131/494 145/152/495 144/151/496
f 125/131/497 126/132/498 146/153/499 145/152/500
f 126/132/501 127/133/502 147/154/503 146/153/504
f 127/133/505 128/134/506 148/155/507 147/154/508
f 128/134/509 129/135/510 149/156/511 148/155/512
f 129/135/513 130/136/514 150/157/515 149/156/516
f 130/136/517 131/137/518 151/158/519 150/157/520
f 131/137/521 132/138/522 152/159/523 151/158/524
f 132/138/525 133/139/526 153/160/527 152/159/528
f 133/139/529 134/140/530 154/161/531 153/160/532
f 134/140/533 135/141/534 155/162/535 154/161/536
f 135/141/537 136/142/538 156/163/539 155/162/540
f 136/142/541 137/143/542 157/164/543 156/163/544
f 137/143/545 138/144/546 158/165/547 157/164/548
f 138/144/549 139/145/550 159/166/551 158/165/552
f 139/145/553 140/146/554 160/167/555 159/166/556
f 140/146/557 121/147/558 141/168/559 160/167/560
f 141/148/561 142/149/562 162/170/563 161/169/564
f 142/149/565 143/150/566 163/171/567 162/170/568
f 143/150/569 144/151/570 164/172/571 163/171/572
f 144/151/573 145/152/574 165/173/575 164/172/576
f 145/152/577 146/153/578 166/174/579 165/173/580
f 146/153/581 147/154/582 167/175/583 166/174/584
f 147/154/585 148/155/586 168/176/587 167/175/588
f 148/155/589 149/156/590 169/177/591 168/176/592
f 149/156/593 150/157/594 170/178/595 169/177/596
f 150/157/597 151/158/598 171/179/599 170/178/600
f 151/158/601 152/159/602 172/180/603 171/179/604
f 152/159/605 153/160/606 173/181/607 172/180/608
f 153/160/609 154/161/610 174/182/611 173/181/612
f 154/161/613 155/162/614 175/183/615 174/182/616
f 155/162/617 156/163/618 176/184/619 175/183/620
f 156/163/621 157/164/622 177/185/623 176/184/624
f 157/164/625 158/165/626 178/186/627 177/185/628
f 158/165/629 159/166/630 179/187/631 178/186/632
f 159/166/633 160/167/634 180/188/635 179/187/636
f 160/167/637 141/168/638 161/189/639 180/188/640
f 161/169/641 162/170/642 182/191/643 181/190/644
f 162/170/645 163/171/646 183/192/647 182/191/648
f 163/171/649 164/172/650 184/193/651 183/192/652
f 164/172/653 165/173/654 185/194/655 184/193/656
f 165/173/657 166/174/658 186/195/659 185/194/660
f 166/174/661 167/175/662 187/196/663 186/195/664
f 167/175/665 168/176/666 188/197/667 187/196/668
f 168/176/669 169/177/670 189/198/671 188/197/672
f 169/177/673 170/178/674 190/199/675 189/198/676
f 170/178/677 171/179/678 191/200/679 190/199/680
f 171/179/681 172/180/682 192/201/683 191/200/684
f 172/180/685 173/181/686 193/202/687 192/201/688
f 173/181/689 174/182/690 194/203/691 193/202/692
f 174/182/693 175/183/694 195/204/695 194/203/696
f 175/183/697 176/184/698 196/205/699 195/204/700
f 176/184/701 177/185/702 197/206/703 196/205/704
f 177/185/705 178/186/706 198/207/707 197/206/708
f 178/186/709 179/187/710 199/208/711 198/207/712
f 179/187/713 180/188/714 200/209/715 199/208/716
f 180/188/717 161/189/718 181/210/719 200/209/720
f 181/190/721 182/191/722 202/212/723 201/211/724
f 182/191/725 183/192/726 203/213/727 202/212/728
f 183/192/729 184/193/730 204/214/731 203/213/732
f 184/193/733 185/194/734 205/215/735 204/214/736
f 185/194/737 186/195/738 206/216/739 205/215/740
f 186/195/741 187/196/742 207/217/743 206/216/744
f 187/196/745 188/197/746 208/218/747 207/217/748
f 188/197/749 189/198/750 209/219/751 208/218/752
f 189/198/753 190/199/754 210/220/755 209/219/756
f 190/199/757 191/200/758 211/221/759 210/220/760
f 191/200/761 192/201/762 212/222/763 211/221/764
f 192/201/765 193/202/766 213/223/767 212/222/768
f 193/202/769 194/203/770 214/224/771 213/223/772
f 194/203/773 195/204/774 215/225/775 214/224/776
f 195/204/777 196/205/778 216/226/779 215/225/780
f 196/205/781 197/206/782 217/227/783 216/226/784
f 197/206/785 198/207/786 218/228/787 217/227/788
f 198/207/789 199/208/790 219/229/791 218/228/792
f 199/208/793 200/209/794 220/230/795 219/229/796
f 200/209/797 181/210/798 201/231/799 220/230/800
f 201/211/801 202/212/802 222/233/803 221/232/804
f 202/212/805 203/213/806 223/234/807 222/233/808
f 203/213/809 204/214/810 224/235/811 223/234/812
f 204/214/813 205/215/814 225/236/815 224/235/816
f 205/215/817 206/216/818 226/237/819 225/236/820
f 206/216/821 207/217/822 227/238/823 226/237/824
f 207/217/825 208/218/826 228/239/827 227/238/828
f 208/218/829 209/219/830 229/240/831 228/239/832
f 209/219/833 210/220/834 230/241/835 229/240/836
f 210/220/837 211/221/838 231/242/839 230/241/840
f 211/221/841 212/222/842 232/243/843 231/242/844
f 212/222/845 213/223/846 233/244/847 232/243/848
f 213/223/849 214/224/850 234/245/851 233/244/852
f 214/224/853 215/225/854 235/246/855 234/245/856
f 215/225/857 216/226/858 236/247/859 235/246/860
f 216/226/861 217/227/862 237/248/863 236/247/864
f 217/227/865 218/228/866 238/249/867 237/248/868
f 218/228/869 219/229/870 239/250/871 238/249/872
f 219/229/873 220/230/874 240/251/875 239/250/876
f 220/230/877 201/231/878 221/252/879 240/251/880
f 221/232/881 222/233/882 242/254/883 241/253/884
f 222/233/885 223/234/886 243/255/887 242/254/888
f 223/234/889 224/235/890 244/256/891 243/255/892
f 224/235/893 225/236/894 245/257/895 244/256/896
f 225/236/897 226/237/898 246/258/899 245/257/900
f 226/237/901 227/238/902 247/259/903 246/258/904
f 227/238/905 228/239/906 248/260/907 247/259/908
f 228/239/909 229/240/910 249/261/911 248/260/912
f 229/240/913 230/241/914 250/262/915 249/261/916
f 230/241/917 231/242/918 251/263/919 250/262/920
f 231/242/921 232/243/922 252/264/923 251/263/924
f 232/243/925 233/244/926 253/265/927 252/264/928
f 233/244/929 234/245/930 254/266/931 253/265/932
f 234/245/933 235/246/934 255/267/935 254/266/936
f 235/246/937 236/247/938 256/268/939 255/267/940
f 236/247/941 237/248/942 257/269/943 256/268/944
f 237/248/945 238/249/946 258/270/947 257/269/948
f 238/249/949 239/250/950 259/271/951 258/270/952
f 239/250/953 240/251/954 260/272/955 259/271/956
f 240/251/957 221/252/958 241/273/959 260/272/960
f 241/253/961 242/254/962 262/275/963 261/274/964
f 242/254/965 243/255/966 263/276/967 262/275/968
f 243/255/969 244/256/970 264/277/971 263/276/972
f 244/256/973 245/257/974 265/278/975 264/277/976
f 245/257/977 246/258/978 266/279/979 265/278/980
f 246/258/981 247/259/982 267/280/983 266/279/984
f 247/259/985 248/260/986 268/281/987 267/280/988
f 248/260/989 249/261/990 269/282/991 268/281/992
f 249/261/993 250/262/994 270/283/995 269/282/996
f 250/262/997 251/263/998 271/284/999 270/283/1000
f 251/263/1001 252/264/1002 272/285/1003 271/284/1004
f 252/264/1005 253/265/1006 273/286/1007 272/285/1008
f 253/265/1009 254/266/1010 274/287/1011 273/286/1012
f 254/266/1013 255/267/1014 275/288/1015 274/287/1016
f 255/267/1017 256/268/1018 276/289/1019 275/288/1020
f 256/268/1021 257/269/1022 277/290/1023 276/289/1024
f 257/269/1025 258/270/1026 278/291/1027 277/290/1028
f 258/270/1029 259/271/1030 279/292/1031 278/291/1032
f 259/271/1033 260/272/1034 280/293/1035 279/292/1036
f 260/272/1037 241/273/1038 261/294/1039 280/293/1040
f 2/2/1041 1/1/1042 281/295/1043
f 3/3/1044 2/2/1045 281/296/1046
f 4/4/1047 3/3/1048 281/297/1049
f 5/5/1050 4/4/1051 281/298/1052
f 6/6/1053 5/5/1054 281/299/1055
f 7/7/1056 6/6/1057 281/300/1058
f 8/8/1059 7/7/1060 281/301/1061
f 9/9/1062 8/8/1063 281/302/1064
f 10/10/1065 9/9/1066 281/303/1067
f 11/11/1068 10/10/1069 281/304/1070
f 12/12/1071 11/11/1072 281/305/1073
f 13/13/1074 12/12/1075 281/306/1076
f 14/14/1077 13/13/1078 281/307/1079
f 15/15/1080 14/14/1081 281/308/1082
f 16/16/1083 15/15/1084 281/309/1085
f 17/17/1086 16/16/1087 281/310/1088
f 18/18/1089 17/17/1090 281/311/1091
f 19/19/1092 18/18/1093 281/312/1094
f 20/20/1095 19/19/1096 281/313/1097
f 1/21/1098 20/20/1099 281/314/1100
f 261/274/1101 262/275/1102 282/315/1103
f 262/275/1104 263/276/1105 282/316/1106
f 263/276/1107 264/277/1108 282/317/1109
f 264/277/1110 265/278/1111 282/318/1112
f 265/278/1113 266/279/1114 282/319/1115
f 266/279/1116 267/280/1117 282/320/1118
f 267/280/1119 268/281/1120 282/321/1121
f 268/281/1122 269/282/1123 282/322/1124
f 269/282/1125 270/283/1126 282/323/1127
f 270/283/1128 271/284/1129 282/324/1130
f 271/284/1131 272/285/1132 282/325/1133
f 272/285/1134 273/286/1135 282/326/1136
f 273/286/1137 274/287/1138 282/327/1139
f 274/287/1140 275/288/1141 282/328/1142
f 275/288/1143 276/289/1144 282/329/1145
f 276/289/1146 277/290/1147 282/330/1148
f 277/290/1149 278/291/1150 282/331/1151
f 278/291/1152 279/292/1153 282/332/1154
f 279/292/1155 280/293/1156 282/333/1157
f 280/293/1158 261/294/1159 282/334/1160
